0.000000000000000000e+00,1.000000000000000000e+00,nan
1.000000000000000000e+00,0.000000000000000000e+00,nan
2.000000000000000000e+00,0.000000000000000000e+00,nan
3.000000000000000000e+00,0.000000000000000000e+00,nan
4.000000000000000000e+00,5.000000000000000000e+00,-5.023999999999999577e-01
5.000000000000000000e+00,4.000000000000000000e+00,4.874999999999999889e-01
6.000000000000000000e+00,5.000000000000000000e+00,5.790999999999999481e-01
7.000000000000000000e+00,2.000000000000000000e+01,-7.141999999999999460e-01
8.000000000000000000e+00,1.700000000000000000e+01,-2.416999999999999982e-01
9.000000000000000000e+00,1.700000000000000000e+01,1.342000000000000137e-01
1.000000000000000000e+01,1.100000000000000000e+01,-6.626999999999999558e-01
1.100000000000000000e+01,2.000000000000000000e+00,-1.000000000000000000e+00
1.200000000000000000e+01,3.000000000000000000e+00,-8.256000000000000005e-01
1.300000000000000000e+01,0.000000000000000000e+00,nan
1.400000000000000000e+01,0.000000000000000000e+00,nan
1.500000000000000000e+01,0.000000000000000000e+00,nan
1.600000000000000000e+01,1.000000000000000000e+00,nan
