0.000000000000000000e+00,1.000000000000000000e+00,nan
1.000000000000000000e+00,1.600000000000000000e+01,-5.080999999999999961e-01
2.000000000000000000e+00,1.200000000000000000e+02,-6.652000000000000135e-01
3.000000000000000000e+00,5.600000000000000000e+02,-7.129999999999999671e-01
4.000000000000000000e+00,1.820000000000000000e+03,-6.886999999999999789e-01
5.000000000000000000e+00,4.368000000000000000e+03,-6.153999999999999471e-01
6.000000000000000000e+00,8.008000000000000000e+03,-5.038000000000000256e-01
7.000000000000000000e+00,1.144000000000000000e+04,-3.613000000000000100e-01
8.000000000000000000e+00,1.287000000000000000e+04,-1.973000000000000032e-01
9.000000000000000000e+00,1.144000000000000000e+04,-2.520000000000000018e-02
1.000000000000000000e+01,8.008000000000000000e+03,1.409999999999999865e-01
1.100000000000000000e+01,4.368000000000000000e+03,2.898000000000000020e-01
1.200000000000000000e+01,1.820000000000000000e+03,4.138000000000000012e-01
1.300000000000000000e+01,5.600000000000000000e+02,5.072999999999999732e-01
1.400000000000000000e+01,1.200000000000000000e+02,5.611000000000000432e-01
1.500000000000000000e+01,1.600000000000000000e+01,5.562000000000000277e-01
1.600000000000000000e+01,1.000000000000000000e+00,nan
