0.000000000000000000e+00,1.000000000000000000e+00,nan
1.000000000000000000e+00,0.000000000000000000e+00,nan
2.000000000000000000e+00,0.000000000000000000e+00,nan
3.000000000000000000e+00,0.000000000000000000e+00,nan
4.000000000000000000e+00,6.000000000000000000e+00,-7.163000000000000478e-01
5.000000000000000000e+00,8.000000000000000000e+00,-8.397000000000000020e-01
6.000000000000000000e+00,1.000000000000000000e+01,-6.961000000000000520e-01
7.000000000000000000e+00,1.700000000000000000e+01,-7.655999999999999472e-01
8.000000000000000000e+00,1.200000000000000000e+01,-6.522999999999999909e-01
9.000000000000000000e+00,8.000000000000000000e+00,-5.989999999999999769e-01
1.000000000000000000e+01,1.000000000000000000e+01,1.477999999999999869e-01
1.100000000000000000e+01,5.000000000000000000e+00,6.233999999999999542e-01
1.200000000000000000e+01,3.000000000000000000e+00,8.159999999999999476e-01
1.300000000000000000e+01,0.000000000000000000e+00,nan
1.400000000000000000e+01,0.000000000000000000e+00,nan
1.500000000000000000e+01,0.000000000000000000e+00,nan
1.600000000000000000e+01,1.000000000000000000e+00,nan
