0.000000000000000000e+00,1.000000000000000000e+00,nan
1.000000000000000000e+00,1.600000000000000000e+01,nan
2.000000000000000000e+00,1.200000000000000000e+02,4.889999999999999902e-02
3.000000000000000000e+00,5.600000000000000000e+02,5.709999999999999798e-02
4.000000000000000000e+00,1.820000000000000000e+03,8.930000000000000437e-02
5.000000000000000000e+00,4.368000000000000000e+03,1.140000000000000041e-01
6.000000000000000000e+00,8.008000000000000000e+03,1.471999999999999975e-01
7.000000000000000000e+00,1.144000000000000000e+04,1.904000000000000137e-01
8.000000000000000000e+00,1.287000000000000000e+04,2.494000000000000106e-01
9.000000000000000000e+00,1.144000000000000000e+04,3.229000000000000203e-01
1.000000000000000000e+01,8.008000000000000000e+03,3.976999999999999980e-01
1.100000000000000000e+01,4.368000000000000000e+03,4.481999999999999873e-01
1.200000000000000000e+01,1.820000000000000000e+03,4.778999999999999915e-01
1.300000000000000000e+01,5.600000000000000000e+02,5.071999999999999842e-01
1.400000000000000000e+01,1.200000000000000000e+02,5.381000000000000227e-01
1.500000000000000000e+01,1.600000000000000000e+01,5.350000000000000311e-01
1.600000000000000000e+01,1.000000000000000000e+00,nan
