0.000000000000000000e+00,1.000000000000000000e+00,nan
1.000000000000000000e+00,1.600000000000000000e+01,-6.348000000000000309e-01
2.000000000000000000e+00,1.200000000000000000e+02,-3.281999999999999917e-01
3.000000000000000000e+00,5.600000000000000000e+02,-3.091999999999999749e-01
4.000000000000000000e+00,1.820000000000000000e+03,-3.029000000000000026e-01
5.000000000000000000e+00,4.368000000000000000e+03,-2.968999999999999972e-01
6.000000000000000000e+00,8.008000000000000000e+03,-2.881000000000000227e-01
7.000000000000000000e+00,1.144000000000000000e+04,-2.752000000000000002e-01
8.000000000000000000e+00,1.287000000000000000e+04,-2.569000000000000172e-01
9.000000000000000000e+00,1.144000000000000000e+04,-2.313999999999999946e-01
1.000000000000000000e+01,8.008000000000000000e+03,-1.965000000000000080e-01
1.100000000000000000e+01,4.368000000000000000e+03,-1.494000000000000050e-01
1.200000000000000000e+01,1.820000000000000000e+03,-8.669999999999999929e-02
1.300000000000000000e+01,5.600000000000000000e+02,-3.299999999999999982e-03
1.400000000000000000e+01,1.200000000000000000e+02,1.184999999999999942e-01
1.500000000000000000e+01,1.600000000000000000e+01,6.185000000000000497e-01
1.600000000000000000e+01,1.000000000000000000e+00,nan
