Features,3.0,4.0,5.0,6.0,7.0,8.0,9.0,10.0,11.0,12.0,13.0
node_conn_normal_0,-0.0956851833458204,-0.06634797695734906,-0.05483732667100119,-0.0384477792044928,-0.010624665695024462,-0.17835229846646788,0.014297141050677501,0.023228822058737577,0.04747555583588152,0.08220652977022519,0.16986580230326864
node_conn_normal_1,-0.025260321823585622,0.00011992707221463722,0.0030987630929611015,0.013556886627968619,0.035153892260351954,0.268658249571902,0.1281273572499598,0.18947111055269417,0.24230993278585708,0.29665418166519125,0.3691444144259175
node_conn_padded_0,0.10305887595623545,0.11596403542759343,0.13849215509084445,0.15123438324774321,0.14718949807628812,0.11328062927674981,0.1011356844203303,0.06185617317734184,0.017211931143989917,-0.031897039211161674,-0.06792921242629142
avg_clust_normal_0,0.3476946848934699,0.22056226391177614,0.12567952018637452,0.056908583185066315,0.01766104573327351,-0.2836098719490428,-0.01574657614522764,-0.021241479691637383,-0.020604212802155422,-0.01967870406764812,-0.08392244015462923
avg_clust_normal_1,0.0045739818338589545,-0.010849797006226026,-0.013202511851309454,-0.013237640498317611,-0.009203723170438147,0.2035782528550175,0.02544243288108238,0.035809278603990996,0.01752995662813829,-0.03512946559003688,-0.11005732360909631
avg_clust_padded_0,0.3011105028089167,0.24901140587769266,0.22161565543127537,0.20075002250013396,0.18095657666642487,0.04604063657507802,0.1432196309199901,0.11949416630986423,0.08799640447454213,0.05050682498063581,0.02196374122508634
padded adj geary C,0.3536755890319071,0.33566648645817965,0.3519976320770815,0.4077131842123737,0.5894222804229097,-0.08884995080568399,-0.18214687266175777,-0.003491590285056692,0.04630529378923895,0.06209573541973008,0.052035954828140094
padded morans I,-0.22610736455812738,-0.25166390417553797,-0.2954438686270278,-0.3713449025260194,-0.56655065874234,0.10333266951975048,0.191014570469946,0.00688767813201076,-0.04618699678211212,-0.06073427638890515,-0.05035227942725698
adj geary C,-1.1970130302888593,-1.2186748112080572,-1.3899018256122642,-1.8547840787905163,-3.4150364664761113,-1.45408911911737,2.849658648089838,1.339380527286248,0.9326757783509495,0.7982759094537404,0.7695135614279307
morans I,0.35885254551503465,0.5139448467570266,0.798986691012678,1.3575363500299729,2.9922793990387326,1.1816002483035473,-3.137858293473241,-1.538017918082509,-1.0091407675438266,-0.7266030600043691,-0.5477490754043709
bias,-1.0146180770553848e-14,-4.466516539220963e-15,-2.2600987955331917e-14,1.0213814657326209e-14,-1.1376052958802715e-13,-5.0919419505510155e-15,7.427782262821097e-15,-3.0958342714468984e-15,3.5309754252421666e-15,-6.1205109990608575e-15,-9.943218123864561e-16
