0.000000000000000000e+00,1.000000000000000000e+00,nan
1.000000000000000000e+00,0.000000000000000000e+00,nan
2.000000000000000000e+00,0.000000000000000000e+00,nan
3.000000000000000000e+00,0.000000000000000000e+00,nan
4.000000000000000000e+00,6.000000000000000000e+00,3.078000000000000180e-01
5.000000000000000000e+00,8.000000000000000000e+00,-3.670000000000000345e-02
6.000000000000000000e+00,1.000000000000000000e+01,6.294999999999999485e-01
7.000000000000000000e+00,1.700000000000000000e+01,2.340000000000000135e-01
8.000000000000000000e+00,1.200000000000000000e+01,3.407000000000000028e-01
9.000000000000000000e+00,8.000000000000000000e+00,-8.680999999999999828e-01
1.000000000000000000e+01,1.000000000000000000e+01,6.586999999999999522e-01
1.100000000000000000e+01,5.000000000000000000e+00,4.435999999999999943e-01
1.200000000000000000e+01,3.000000000000000000e+00,-8.328999999999999737e-01
1.300000000000000000e+01,0.000000000000000000e+00,nan
1.400000000000000000e+01,0.000000000000000000e+00,nan
1.500000000000000000e+01,0.000000000000000000e+00,nan
1.600000000000000000e+01,1.000000000000000000e+00,nan
