0.000000000000000000e+00,1.000000000000000000e+00,nan
1.000000000000000000e+00,1.600000000000000000e+01,4.929999999999999660e-02
2.000000000000000000e+00,1.200000000000000000e+02,-1.129999999999999928e-02
3.000000000000000000e+00,5.600000000000000000e+02,-2.280000000000000082e-02
4.000000000000000000e+00,1.820000000000000000e+03,-2.850000000000000103e-02
5.000000000000000000e+00,4.368000000000000000e+03,-3.160000000000000309e-02
6.000000000000000000e+00,8.008000000000000000e+03,-3.330000000000000321e-02
7.000000000000000000e+00,1.144000000000000000e+04,-3.400000000000000244e-02
8.000000000000000000e+00,1.287000000000000000e+04,-3.370000000000000079e-02
9.000000000000000000e+00,1.144000000000000000e+04,-3.209999999999999659e-02
1.000000000000000000e+01,8.008000000000000000e+03,-2.860000000000000042e-02
1.100000000000000000e+01,4.368000000000000000e+03,-2.210000000000000159e-02
1.200000000000000000e+01,1.820000000000000000e+03,-1.080000000000000057e-02
1.300000000000000000e+01,5.600000000000000000e+02,8.899999999999999925e-03
1.400000000000000000e+01,1.200000000000000000e+02,4.780000000000000221e-02
1.500000000000000000e+01,1.600000000000000000e+01,2.997000000000000219e-01
1.600000000000000000e+01,1.000000000000000000e+00,nan
