0.000000000000000000e+00,1.000000000000000000e+00,nan
1.000000000000000000e+00,1.600000000000000000e+01,-4.929999999999999660e-02
2.000000000000000000e+00,1.200000000000000000e+02,-1.880000000000000074e-02
3.000000000000000000e+00,5.600000000000000000e+02,6.700000000000000226e-03
4.000000000000000000e+00,1.820000000000000000e+03,2.670000000000000151e-02
5.000000000000000000e+00,4.368000000000000000e+03,4.070000000000000007e-02
6.000000000000000000e+00,8.008000000000000000e+03,4.750000000000000056e-02
7.000000000000000000e+00,1.144000000000000000e+04,4.560000000000000164e-02
8.000000000000000000e+00,1.287000000000000000e+04,3.370000000000000079e-02
9.000000000000000000e+00,1.144000000000000000e+04,1.039999999999999952e-02
1.000000000000000000e+01,8.008000000000000000e+03,-2.469999999999999973e-02
1.100000000000000000e+01,4.368000000000000000e+03,-7.130000000000000226e-02
1.200000000000000000e+01,1.820000000000000000e+03,-1.272000000000000075e-01
1.300000000000000000e+01,5.600000000000000000e+02,-1.880000000000000004e-01
1.400000000000000000e+01,1.200000000000000000e+02,-2.474999999999999978e-01
1.500000000000000000e+01,1.600000000000000000e+01,-2.997000000000000219e-01
1.600000000000000000e+01,1.000000000000000000e+00,nan
