0.000000000000000000e+00,1.000000000000000000e+00,nan
1.000000000000000000e+00,1.600000000000000000e+01,nan
2.000000000000000000e+00,1.200000000000000000e+02,nan
3.000000000000000000e+00,5.600000000000000000e+02,3.299999999999999982e-03
4.000000000000000000e+00,1.820000000000000000e+03,7.300000000000000065e-03
5.000000000000000000e+00,4.368000000000000000e+03,1.310000000000000053e-02
6.000000000000000000e+00,8.008000000000000000e+03,2.210000000000000159e-02
7.000000000000000000e+00,1.144000000000000000e+04,3.599999999999999728e-02
8.000000000000000000e+00,1.287000000000000000e+04,5.580000000000000238e-02
9.000000000000000000e+00,1.144000000000000000e+04,8.179999999999999771e-02
1.000000000000000000e+01,8.008000000000000000e+03,1.132999999999999979e-01
1.100000000000000000e+01,4.368000000000000000e+03,1.481000000000000094e-01
1.200000000000000000e+01,1.820000000000000000e+03,1.839000000000000079e-01
1.300000000000000000e+01,5.600000000000000000e+02,2.215999999999999914e-01
1.400000000000000000e+01,1.200000000000000000e+02,2.718999999999999750e-01
1.500000000000000000e+01,1.600000000000000000e+01,3.634000000000000008e-01
1.600000000000000000e+01,1.000000000000000000e+00,nan
