0.000000000000000000e+00,1.000000000000000000e+00,nan,nan,nan,nan,nan,nan,nan,nan,nan,nan,nan,nan,nan,nan,nan,nan,nan,nan,nan,nan,nan,nan,nan,nan,nan,nan,nan,nan,nan,nan,nan,nan,nan,nan,nan,nan,nan,nan,nan,nan,nan,nan,nan,nan,nan,nan,nan,nan,nan,nan,nan,nan,nan,nan,nan,nan,nan,nan,nan,nan,nan,nan,nan,nan,nan,nan,nan,nan,nan,nan,nan,nan,nan,nan,nan,nan,nan,nan,nan,nan,nan,nan,nan,nan,nan,nan,nan,nan,nan,nan,nan,nan,nan,nan,nan,nan,nan,nan,nan,nan
1.000000000000000000e+00,1.600000000000000000e+01,-5.306999999999999496e-01,-6.371999999999999886e-01,-4.252000000000000224e-01,-4.390999999999999903e-01,-3.242999999999999772e-01,-4.101000000000000201e-01,-4.213999999999999968e-01,-1.471000000000000085e-01,4.000000000000000083e-03,2.449999999999999956e-01,-1.507999999999999896e-01,-4.722000000000000086e-01,-5.048000000000000265e-01,-6.904000000000000137e-01,-6.733999999999999986e-01,-1.668000000000000038e-01,-3.133000000000000229e-01,-5.204999999999999627e-01,-1.869000000000000106e-01,-4.091000000000000192e-01,-5.280000000000000249e-01,-5.189000000000000279e-01,-3.790000000000000036e-01,-1.049999999999999961e-01,-7.311999999999999611e-01,-3.894000000000000239e-01,-6.026000000000000245e-01,-4.433000000000000274e-01,-7.517000000000000348e-01,-1.121000000000000052e-01,-2.373000000000000109e-01,-5.128000000000000336e-01,-5.426999999999999602e-01,-3.291999999999999926e-01,-6.108000000000000096e-01,-6.111999999999999655e-01,-5.570000000000000506e-01,-3.508000000000000007e-01,-4.707999999999999963e-01,-6.492999999999999883e-01,-6.196000000000000396e-01,-6.634999999999999787e-01,-1.953999999999999904e-01,-2.207999999999999963e-01,-4.183999999999999941e-01,-1.175999999999999962e-01,-3.967999999999999861e-01,-5.032999999999999696e-01,-7.104000000000000314e-01,-1.413999999999999979e-01,-6.732000000000000206e-01,-2.343000000000000083e-01,-3.806999999999999829e-01,-4.975999999999999868e-01,-3.926000000000000045e-01,-3.454999999999999738e-01,-9.979999999999999982e-02,-2.777000000000000024e-01,-5.531000000000000361e-01,-6.076000000000000290e-01,-2.023000000000000076e-01,-2.857999999999999985e-01,-6.323999999999999622e-01,-3.534999999999999809e-01,-6.592000000000000082e-01,-6.414999999999999591e-01,-7.779000000000000359e-01,-5.048000000000000265e-01,-2.553000000000000269e-01,-3.794000000000000150e-01,-2.891000000000000236e-01,-3.321000000000000063e-01,-3.544999999999999818e-01,-9.810000000000000664e-02,-5.920999999999999597e-01,1.428000000000000103e-01,-6.284999999999999476e-01,-5.938999999999999835e-01,-4.349000000000000088e-01,-2.757000000000000006e-01,-7.489999999999999436e-02,-5.384999999999999787e-01,-4.351999999999999758e-01,3.880000000000000115e-02,-2.429000000000000048e-01,-5.455999999999999739e-01,-5.047000000000000375e-01,-2.281999999999999862e-01,-6.309000000000000163e-01,-3.471000000000000196e-01,-4.042000000000000037e-01,-3.637000000000000233e-01,-5.262999999999999901e-01,7.530000000000000582e-02,-4.017999999999999905e-01,-7.072000000000000508e-01,-4.218999999999999972e-01,-2.748999999999999777e-01,-3.113000000000000211e-01,-3.462000000000000077e-01
2.000000000000000000e+00,1.200000000000000000e+02,-3.774000000000000132e-01,-2.934999999999999831e-01,-4.803000000000000047e-01,-4.273000000000000131e-01,-4.380999999999999894e-01,-3.800999999999999934e-01,-4.827000000000000179e-01,-4.647999999999999909e-01,-5.174999999999999600e-01,-4.345999999999999863e-01,-4.042999999999999927e-01,-3.333999999999999742e-01,-4.698999999999999844e-01,-4.583999999999999742e-01,-4.712000000000000077e-01,-4.425999999999999934e-01,-3.708000000000000185e-01,-4.944000000000000061e-01,-3.200000000000000067e-01,-5.237000000000000544e-01,-4.396999999999999797e-01,-5.546999999999999709e-01,-3.099999999999999978e-01,-4.434000000000000163e-01,-4.132000000000000117e-01,-3.655999999999999805e-01,-5.350000000000000311e-01,-3.392000000000000015e-01,-4.822000000000000175e-01,-3.785999999999999921e-01,-4.203999999999999959e-01,-4.913000000000000145e-01,-4.067000000000000060e-01,-3.678000000000000158e-01,-4.406999999999999806e-01,-4.043999999999999817e-01,-5.261000000000000121e-01,-4.259999999999999898e-01,-4.163999999999999924e-01,-4.752000000000000113e-01,-4.737000000000000099e-01,-3.610999999999999766e-01,-4.259000000000000008e-01,-4.146000000000000241e-01,-4.559000000000000274e-01,-5.138000000000000345e-01,-5.253999999999999782e-01,-4.605000000000000204e-01,-4.045000000000000262e-01,-5.918999999999999817e-01,-4.940999999999999837e-01,-4.042999999999999927e-01,-4.884000000000000008e-01,-4.546000000000000041e-01,-4.061000000000000165e-01,-4.516999999999999904e-01,-4.696000000000000174e-01,-4.156000000000000250e-01,-3.971999999999999975e-01,-3.746999999999999775e-01,-4.771000000000000241e-01,-3.886000000000000010e-01,-3.809000000000000163e-01,-4.603999999999999759e-01,-5.144999999999999574e-01,-4.005000000000000226e-01,-4.169999999999999818e-01,-4.541000000000000036e-01,-4.144999999999999796e-01,-4.303000000000000158e-01,-5.034999999999999476e-01,-5.391000000000000236e-01,-4.032999999999999918e-01,-4.651000000000000134e-01,-5.425999999999999712e-01,-4.688999999999999835e-01,-4.078999999999999848e-01,-4.647000000000000020e-01,-4.784999999999999809e-01,-4.973000000000000198e-01,-3.801999999999999824e-01,-4.541999999999999926e-01,-3.998999999999999777e-01,-4.430999999999999939e-01,-3.719000000000000083e-01,-4.733999999999999875e-01,-3.814000000000000168e-01,-5.302000000000000046e-01,-5.012999999999999678e-01,-4.511000000000000010e-01,-3.529999999999999805e-01,-4.101000000000000201e-01,-5.048000000000000265e-01,-3.663000000000000145e-01,-4.652000000000000024e-01,-4.269999999999999907e-01,-4.924000000000000044e-01,-4.238999999999999990e-01,-3.519999999999999796e-01,-4.300999999999999823e-01
3.000000000000000000e+00,5.600000000000000000e+02,-4.495000000000000107e-01,-4.144999999999999796e-01,-4.102000000000000091e-01,-4.139999999999999791e-01,-4.189999999999999836e-01,-4.418000000000000260e-01,-4.178999999999999937e-01,-3.775999999999999912e-01,-4.307000000000000273e-01,-4.656000000000000139e-01,-4.280999999999999805e-01,-4.383000000000000229e-01,-4.136000000000000232e-01,-4.419000000000000150e-01,-3.769000000000000128e-01,-4.546999999999999931e-01,-4.517999999999999794e-01,-3.982999999999999874e-01,-4.213999999999999968e-01,-4.501999999999999891e-01,-3.965000000000000191e-01,-4.457999999999999741e-01,-4.561999999999999944e-01,-4.430999999999999939e-01,-3.897999999999999798e-01,-4.307000000000000273e-01,-3.997999999999999887e-01,-4.349000000000000088e-01,-3.972999999999999865e-01,-3.784000000000000141e-01,-4.154999999999999805e-01,-4.187000000000000166e-01,-4.122000000000000108e-01,-4.149999999999999800e-01,-4.237000000000000210e-01,-4.575000000000000178e-01,-4.273000000000000131e-01,-4.546999999999999931e-01,-3.956999999999999962e-01,-4.255999999999999783e-01,-4.081000000000000183e-01,-4.117999999999999994e-01,-3.966000000000000081e-01,-4.819999999999999840e-01,-4.176000000000000267e-01,-4.052000000000000046e-01,-4.515000000000000124e-01,-4.616000000000000103e-01,-4.258000000000000118e-01,-4.489000000000000212e-01,-4.552999999999999825e-01,-3.951999999999999957e-01,-4.207000000000000184e-01,-4.801000000000000267e-01,-4.284999999999999920e-01,-4.046000000000000152e-01,-4.512999999999999790e-01,-4.399000000000000132e-01,-4.915999999999999814e-01,-4.168000000000000038e-01,-4.112999999999999989e-01,-4.370999999999999885e-01,-4.430000000000000049e-01,-3.776999999999999802e-01,-3.956999999999999962e-01,-3.771999999999999797e-01,-4.542999999999999816e-01,-4.184999999999999831e-01,-3.934000000000000274e-01,-4.052000000000000046e-01,-4.661000000000000143e-01,-4.405000000000000027e-01,-4.544000000000000261e-01,-4.247000000000000219e-01,-3.962999999999999856e-01,-4.104999999999999760e-01,-4.198000000000000065e-01,-3.841999999999999860e-01,-4.434000000000000163e-01,-4.071000000000000174e-01,-4.114999999999999769e-01,-4.549000000000000266e-01,-4.545000000000000151e-01,-4.496999999999999886e-01,-4.462999999999999745e-01,-3.931999999999999940e-01,-4.278000000000000136e-01,-4.232000000000000206e-01,-3.850999999999999979e-01,-3.789000000000000146e-01,-4.289999999999999925e-01,-4.163999999999999924e-01,-4.520000000000000129e-01,-4.568999999999999728e-01,-4.293000000000000149e-01,-4.621999999999999997e-01,-4.208000000000000074e-01,-4.203000000000000069e-01,-3.958999999999999742e-01,-4.101000000000000201e-01
4.000000000000000000e+00,1.820000000000000000e+03,-3.976999999999999980e-01,-4.027999999999999914e-01,-4.313000000000000167e-01,-3.934000000000000274e-01,-4.002999999999999892e-01,-4.071000000000000174e-01,-4.400999999999999912e-01,-4.217000000000000193e-01,-4.149999999999999800e-01,-3.861999999999999877e-01,-4.020000000000000240e-01,-3.967999999999999861e-01,-4.123999999999999888e-01,-3.963999999999999746e-01,-4.161000000000000254e-01,-4.148999999999999910e-01,-4.048999999999999821e-01,-4.099999999999999756e-01,-3.958999999999999742e-01,-3.859000000000000208e-01,-4.178999999999999937e-01,-4.030000000000000249e-01,-4.399000000000000132e-01,-4.258000000000000118e-01,-4.178000000000000047e-01,-4.084999999999999742e-01,-3.885000000000000120e-01,-4.171000000000000263e-01,-4.212000000000000188e-01,-4.010000000000000231e-01,-3.891999999999999904e-01,-4.375999999999999890e-01,-4.200999999999999734e-01,-4.383000000000000229e-01,-4.228000000000000091e-01,-4.164999999999999813e-01,-4.157000000000000139e-01,-4.344999999999999973e-01,-3.991999999999999993e-01,-3.864000000000000212e-01,-4.331999999999999740e-01,-4.255999999999999783e-01,-3.982999999999999874e-01,-4.238000000000000100e-01,-4.248999999999999999e-01,-4.026000000000000134e-01,-4.219999999999999862e-01,-3.951999999999999957e-01,-3.690999999999999837e-01,-4.244999999999999885e-01,-3.922999999999999821e-01,-4.086000000000000187e-01,-4.309999999999999942e-01,-4.177000000000000157e-01,-4.197000000000000175e-01,-4.161000000000000254e-01,-4.131000000000000227e-01,-4.228999999999999981e-01,-4.082000000000000073e-01,-4.052999999999999936e-01,-4.154999999999999805e-01,-4.030000000000000249e-01,-4.063999999999999835e-01,-3.826999999999999846e-01,-3.930000000000000160e-01,-4.178000000000000047e-01,-4.069999999999999729e-01,-4.262000000000000233e-01,-3.694999999999999951e-01,-3.920000000000000151e-01,-4.299000000000000044e-01,-4.333000000000000185e-01,-3.958999999999999742e-01,-4.119999999999999774e-01,-4.077000000000000068e-01,-4.218000000000000083e-01,-4.072999999999999954e-01,-4.061000000000000165e-01,-4.371999999999999775e-01,-3.665999999999999814e-01,-4.335999999999999854e-01,-4.171000000000000263e-01,-4.132000000000000117e-01,-4.097000000000000086e-01,-4.344000000000000083e-01,-4.128999999999999893e-01,-4.094999999999999751e-01,-4.040000000000000258e-01,-4.046000000000000152e-01,-4.289000000000000035e-01,-4.243999999999999995e-01,-4.144999999999999796e-01,-4.465999999999999970e-01,-4.023999999999999799e-01,-4.299999999999999933e-01,-4.218999999999999972e-01,-4.199999999999999845e-01,-4.101000000000000201e-01,-4.384000000000000119e-01,-4.092999999999999972e-01
5.000000000000000000e+00,4.368000000000000000e+03,-3.785999999999999921e-01,-3.895000000000000129e-01,-3.794000000000000150e-01,-3.809000000000000163e-01,-3.808000000000000274e-01,-3.780999999999999917e-01,-3.841999999999999860e-01,-3.662000000000000255e-01,-3.622000000000000219e-01,-3.739999999999999991e-01,-3.751999999999999780e-01,-3.728000000000000203e-01,-3.735999999999999877e-01,-3.619999999999999885e-01,-3.805000000000000049e-01,-3.647000000000000242e-01,-3.688000000000000167e-01,-3.734999999999999987e-01,-3.872999999999999776e-01,-3.649000000000000021e-01,-3.729999999999999982e-01,-3.618000000000000105e-01,-3.886000000000000010e-01,-3.821999999999999842e-01,-3.869000000000000217e-01,-3.739999999999999991e-01,-3.881999999999999895e-01,-3.709999999999999964e-01,-3.728000000000000203e-01,-3.889000000000000234e-01,-3.870000000000000107e-01,-3.803000000000000269e-01,-3.866999999999999882e-01,-3.714000000000000079e-01,-3.881999999999999895e-01,-3.830000000000000071e-01,-3.784000000000000141e-01,-3.867999999999999772e-01,-3.615999999999999770e-01,-3.619999999999999885e-01,-4.116000000000000214e-01,-3.865000000000000102e-01,-3.857999999999999763e-01,-3.759000000000000119e-01,-3.670999999999999819e-01,-3.775999999999999912e-01,-3.806999999999999829e-01,-3.850000000000000089e-01,-3.769000000000000128e-01,-3.751999999999999780e-01,-3.704999999999999960e-01,-3.618000000000000105e-01,-3.750000000000000000e-01,-3.768000000000000238e-01,-4.062000000000000055e-01,-3.894000000000000239e-01,-3.855000000000000093e-01,-3.760000000000000009e-01,-3.780000000000000027e-01,-3.750999999999999890e-01,-3.680999999999999828e-01,-3.855000000000000093e-01,-3.741999999999999771e-01,-3.830000000000000071e-01,-3.824000000000000177e-01,-3.664999999999999925e-01,-3.842999999999999750e-01,-3.650999999999999801e-01,-3.595999999999999752e-01,-3.647000000000000242e-01,-3.672000000000000264e-01,-3.819000000000000172e-01,-3.719999999999999973e-01,-3.916999999999999926e-01,-3.842999999999999750e-01,-3.847999999999999754e-01,-3.992999999999999883e-01,-3.759000000000000119e-01,-3.798000000000000265e-01,-3.704000000000000070e-01,-3.637000000000000233e-01,-3.682000000000000273e-01,-3.900000000000000133e-01,-3.744000000000000106e-01,-3.709000000000000075e-01,-3.831999999999999851e-01,-3.971999999999999975e-01,-3.817999999999999727e-01,-3.694999999999999951e-01,-3.557000000000000162e-01,-3.790999999999999925e-01,-3.669000000000000039e-01,-3.715999999999999859e-01,-3.778000000000000247e-01,-3.775999999999999912e-01,-3.859000000000000208e-01,-3.867999999999999772e-01,-3.739999999999999991e-01,-3.855000000000000093e-01,-3.934000000000000274e-01
6.000000000000000000e+00,8.008000000000000000e+03,-3.289000000000000257e-01,-3.205000000000000071e-01,-3.259000000000000230e-01,-3.106999999999999762e-01,-3.304000000000000270e-01,-3.363999999999999768e-01,-3.272999999999999798e-01,-3.311000000000000054e-01,-3.391000000000000125e-01,-3.171999999999999820e-01,-3.247999999999999776e-01,-3.171999999999999820e-01,-3.222999999999999754e-01,-3.284000000000000252e-01,-3.210000000000000075e-01,-3.356999999999999984e-01,-3.219000000000000195e-01,-3.250000000000000111e-01,-3.407000000000000028e-01,-3.245000000000000107e-01,-3.196999999999999842e-01,-3.326999999999999957e-01,-3.209000000000000186e-01,-3.305000000000000160e-01,-3.304000000000000270e-01,-3.266000000000000014e-01,-3.271000000000000019e-01,-3.355000000000000204e-01,-3.225999999999999979e-01,-3.347999999999999865e-01,-3.290000000000000147e-01,-3.209000000000000186e-01,-3.356000000000000094e-01,-3.140000000000000013e-01,-3.316000000000000059e-01,-3.206999999999999851e-01,-3.290000000000000147e-01,-3.150000000000000022e-01,-3.242999999999999772e-01,-3.252999999999999781e-01,-3.222999999999999754e-01,-3.297999999999999821e-01,-3.305000000000000160e-01,-3.197999999999999732e-01,-3.246999999999999886e-01,-3.281000000000000028e-01,-3.185999999999999943e-01,-3.160000000000000031e-01,-3.285000000000000142e-01,-3.194000000000000172e-01,-3.279000000000000248e-01,-3.255000000000000115e-01,-3.276999999999999913e-01,-3.331999999999999962e-01,-3.352999999999999869e-01,-3.287999999999999812e-01,-3.397000000000000020e-01,-3.326000000000000068e-01,-3.141999999999999793e-01,-3.341000000000000081e-01,-3.316000000000000059e-01,-3.416000000000000147e-01,-3.252999999999999781e-01,-3.166999999999999815e-01,-3.200999999999999956e-01,-3.260000000000000120e-01,-3.232999999999999763e-01,-3.266999999999999904e-01,-3.280000000000000138e-01,-3.170000000000000040e-01,-3.291999999999999926e-01,-3.199000000000000177e-01,-3.271000000000000019e-01,-3.150999999999999912e-01,-3.296999999999999931e-01,-3.220000000000000084e-01,-3.217999999999999750e-01,-3.245000000000000107e-01,-3.245000000000000107e-01,-3.306999999999999940e-01,-3.244000000000000217e-01,-3.286000000000000032e-01,-3.075999999999999845e-01,-3.104999999999999982e-01,-3.095999999999999863e-01,-3.069999999999999951e-01,-3.244000000000000217e-01,-3.219000000000000195e-01,-3.175000000000000044e-01,-3.220000000000000084e-01,-3.272999999999999798e-01,-3.179000000000000159e-01,-3.279000000000000248e-01,-3.225000000000000089e-01,-3.245999999999999996e-01,-3.297999999999999821e-01,-3.338999999999999746e-01,-3.148000000000000242e-01,-3.138000000000000234e-01,-3.453999999999999848e-01
7.000000000000000000e+00,1.144000000000000000e+04,-2.540999999999999925e-01,-2.554000000000000159e-01,-2.543000000000000260e-01,-2.637999999999999790e-01,-2.564000000000000168e-01,-2.627999999999999781e-01,-2.474999999999999978e-01,-2.553000000000000269e-01,-2.530999999999999917e-01,-2.601999999999999869e-01,-2.520000000000000018e-01,-2.606999999999999873e-01,-2.661000000000000032e-01,-2.569000000000000172e-01,-2.509000000000000119e-01,-2.614000000000000212e-01,-2.607999999999999763e-01,-2.629000000000000226e-01,-2.631000000000000005e-01,-2.539000000000000146e-01,-2.657999999999999807e-01,-2.755000000000000226e-01,-2.597999999999999754e-01,-2.555999999999999939e-01,-2.475999999999999868e-01,-2.589000000000000190e-01,-2.515000000000000013e-01,-2.531999999999999806e-01,-2.535999999999999921e-01,-2.696999999999999953e-01,-2.576999999999999846e-01,-2.429000000000000048e-01,-2.611999999999999877e-01,-2.535999999999999921e-01,-2.582999999999999741e-01,-2.605999999999999983e-01,-2.626999999999999891e-01,-2.566999999999999837e-01,-2.439000000000000057e-01,-2.594000000000000195e-01,-2.649000000000000243e-01,-2.649000000000000243e-01,-2.553000000000000269e-01,-2.621999999999999886e-01,-2.469000000000000083e-01,-2.679000000000000270e-01,-2.570999999999999952e-01,-2.576999999999999846e-01,-2.599000000000000199e-01,-2.586999999999999855e-01,-2.601999999999999869e-01,-2.592999999999999750e-01,-2.600999999999999979e-01,-2.650000000000000133e-01,-2.497999999999999943e-01,-2.564000000000000168e-01,-2.595000000000000084e-01,-2.635000000000000120e-01,-2.575999999999999956e-01,-2.589000000000000190e-01,-2.494999999999999996e-01,-2.604000000000000203e-01,-2.561999999999999833e-01,-2.615999999999999992e-01,-2.575999999999999956e-01,-2.580000000000000071e-01,-2.646999999999999909e-01,-2.515999999999999903e-01,-2.480999999999999872e-01,-2.607999999999999763e-01,-2.567999999999999727e-01,-2.540000000000000036e-01,-2.570000000000000062e-01,-2.548000000000000265e-01,-2.580999999999999961e-01,-2.510000000000000009e-01,-2.641999999999999904e-01,-2.538000000000000256e-01,-2.511999999999999789e-01,-2.718999999999999750e-01,-2.526999999999999802e-01,-2.506999999999999784e-01,-2.614000000000000212e-01,-2.585999999999999965e-01,-2.641999999999999904e-01,-2.472000000000000031e-01,-2.610999999999999988e-01,-2.540000000000000036e-01,-2.366000000000000048e-01,-2.484000000000000097e-01,-2.539000000000000146e-01,-2.540000000000000036e-01,-2.545000000000000040e-01,-2.464000000000000079e-01,-2.556999999999999829e-01,-2.544000000000000150e-01,-2.536999999999999811e-01,-2.516999999999999793e-01,-2.538000000000000256e-01,-2.676999999999999935e-01
8.000000000000000000e+00,1.287000000000000000e+04,-1.724999999999999867e-01,-1.829999999999999960e-01,-1.738000000000000100e-01,-1.794000000000000039e-01,-1.673000000000000043e-01,-1.690000000000000113e-01,-1.710000000000000131e-01,-1.627000000000000113e-01,-1.680999999999999994e-01,-1.718000000000000083e-01,-1.607999999999999985e-01,-1.816000000000000114e-01,-1.758000000000000118e-01,-1.756999999999999951e-01,-1.653000000000000025e-01,-1.736999999999999933e-01,-1.695000000000000118e-01,-1.676999999999999880e-01,-1.736999999999999933e-01,-1.645000000000000073e-01,-1.844999999999999973e-01,-1.681999999999999884e-01,-1.771000000000000074e-01,-1.728000000000000091e-01,-1.778000000000000136e-01,-1.652000000000000135e-01,-1.726999999999999924e-01,-1.782999999999999863e-01,-1.902999999999999969e-01,-1.700000000000000122e-01,-1.653000000000000025e-01,-1.711999999999999911e-01,-1.801000000000000101e-01,-1.792999999999999872e-01,-1.726000000000000034e-01,-1.837999999999999912e-01,-1.733000000000000096e-01,-1.758000000000000118e-01,-1.734999999999999876e-01,-1.756000000000000061e-01,-1.771999999999999964e-01,-1.763000000000000123e-01,-1.794000000000000039e-01,-1.693999999999999950e-01,-1.706000000000000016e-01,-1.796000000000000096e-01,-1.768000000000000127e-01,-1.806000000000000105e-01,-1.758000000000000118e-01,-1.781999999999999973e-01,-1.786000000000000087e-01,-1.814999999999999947e-01,-1.705000000000000127e-01,-1.774000000000000021e-01,-1.688000000000000056e-01,-1.660999999999999976e-01,-1.814999999999999947e-01,-1.711999999999999911e-01,-1.724999999999999867e-01,-1.729999999999999871e-01,-1.771000000000000074e-01,-1.642000000000000126e-01,-1.867000000000000048e-01,-1.635999999999999954e-01,-1.807999999999999885e-01,-1.706999999999999906e-01,-1.787999999999999867e-01,-1.774000000000000021e-01,-1.754999999999999893e-01,-1.683000000000000052e-01,-1.768000000000000127e-01,-1.721000000000000030e-01,-1.754999999999999893e-01,-1.781999999999999973e-01,-1.857999999999999929e-01,-1.854999999999999982e-01,-1.824000000000000066e-01,-1.693000000000000060e-01,-1.671999999999999875e-01,-1.723999999999999977e-01,-1.782999999999999863e-01,-1.748999999999999999e-01,-1.819000000000000061e-01,-1.759000000000000008e-01,-1.804000000000000048e-01,-1.817000000000000004e-01,-1.741000000000000048e-01,-1.802999999999999881e-01,-1.675000000000000100e-01,-1.671999999999999875e-01,-1.678000000000000047e-01,-1.794000000000000039e-01,-1.756999999999999951e-01,-1.642000000000000126e-01,-1.751000000000000056e-01,-1.741999999999999937e-01,-1.764000000000000012e-01,-1.804999999999999938e-01,-1.749999999999999889e-01,-1.776999999999999968e-01
9.000000000000000000e+00,1.144000000000000000e+04,-8.559999999999999554e-02,-7.660000000000000142e-02,-1.055999999999999994e-01,-8.749999999999999445e-02,-8.909999999999999865e-02,-7.950000000000000122e-02,-9.389999999999999736e-02,-9.099999999999999756e-02,-7.989999999999999880e-02,-9.080000000000000571e-02,-7.639999999999999569e-02,-7.860000000000000320e-02,-1.034999999999999948e-01,-7.309999999999999831e-02,-7.639999999999999569e-02,-9.560000000000000442e-02,-7.589999999999999525e-02,-9.420000000000000595e-02,-8.329999999999999905e-02,-9.339999999999999691e-02,-7.639999999999999569e-02,-7.539999999999999480e-02,-8.100000000000000255e-02,-8.649999999999999356e-02,-9.950000000000000511e-02,-9.229999999999999316e-02,-8.329999999999999905e-02,-9.110000000000000042e-02,-8.659999999999999643e-02,-8.450000000000000566e-02,-9.310000000000000220e-02,-7.829999999999999460e-02,-9.020000000000000240e-02,-9.270000000000000462e-02,-1.019999999999999934e-01,-8.290000000000000147e-02,-8.129999999999999727e-02,-9.410000000000000309e-02,-7.799999999999999989e-02,-8.870000000000000107e-02,-8.250000000000000389e-02,-8.179999999999999771e-02,-7.929999999999999549e-02,-8.350000000000000477e-02,-8.669999999999999929e-02,-7.749999999999999944e-02,-8.179999999999999771e-02,-8.039999999999999925e-02,-8.790000000000000591e-02,-8.630000000000000171e-02,-8.250000000000000389e-02,-8.890000000000000679e-02,-7.749999999999999944e-02,-8.060000000000000497e-02,-9.139999999999999514e-02,-8.250000000000000389e-02,-8.500000000000000611e-02,-9.210000000000000131e-02,-8.890000000000000679e-02,-8.119999999999999440e-02,-7.199999999999999456e-02,-8.970000000000000195e-02,-9.320000000000000506e-02,-9.370000000000000551e-02,-6.819999999999999674e-02,-8.110000000000000542e-02,-8.440000000000000280e-02,-9.470000000000000639e-02,-7.850000000000000033e-02,-8.899999999999999578e-02,-7.169999999999999984e-02,-9.160000000000000087e-02,-9.229999999999999316e-02,-8.039999999999999925e-02,-8.550000000000000655e-02,-8.930000000000000437e-02,-8.669999999999999929e-02,-9.070000000000000284e-02,-8.849999999999999534e-02,-8.369999999999999662e-02,-9.130000000000000615e-02,-8.640000000000000457e-02,-8.240000000000000102e-02,-8.530000000000000082e-02,-6.940000000000000335e-02,-8.899999999999999578e-02,-9.569999999999999341e-02,-8.500000000000000611e-02,-8.379999999999999949e-02,-8.409999999999999420e-02,-8.899999999999999578e-02,-7.589999999999999525e-02,-7.960000000000000409e-02,-8.089999999999999969e-02,-9.969999999999999696e-02,-9.299999999999999933e-02,-9.160000000000000087e-02,-8.390000000000000235e-02,-8.649999999999999356e-02,-7.670000000000000429e-02
1.000000000000000000e+01,8.008000000000000000e+03,1.629999999999999852e-02,8.500000000000000611e-03,6.700000000000000226e-03,-6.100000000000000387e-03,1.100000000000000066e-03,-7.000000000000000146e-03,1.959999999999999937e-02,1.490000000000000005e-02,9.400000000000000369e-03,1.990000000000000102e-02,3.500000000000000073e-03,9.400000000000000369e-03,1.899999999999999996e-03,-5.000000000000000104e-04,6.199999999999999782e-03,-4.499999999999999660e-03,-5.999999999999999474e-04,1.009999999999999960e-02,1.060000000000000005e-02,2.009999999999999981e-02,9.799999999999999684e-03,8.800000000000000530e-03,-7.700000000000000247e-03,-0.000000000000000000e+00,3.299999999999999982e-03,1.540000000000000049e-02,3.000000000000000062e-03,-1.260000000000000009e-02,5.000000000000000104e-03,2.189999999999999933e-02,1.540000000000000049e-02,7.100000000000000408e-03,1.460000000000000013e-02,-3.399999999999999811e-03,1.310000000000000053e-02,7.100000000000000408e-03,-2.899999999999999800e-03,-6.899999999999999883e-03,5.599999999999999943e-03,5.799999999999999600e-03,3.000000000000000062e-03,1.030000000000000013e-02,3.599999999999999901e-03,1.880000000000000074e-02,1.980000000000000163e-02,1.640000000000000138e-02,1.409999999999999969e-02,-4.000000000000000192e-04,1.299999999999999940e-02,2.099999999999999870e-03,1.640000000000000138e-02,1.299999999999999940e-03,2.460000000000000034e-02,2.599999999999999881e-03,1.319999999999999993e-02,6.199999999999999782e-03,5.199999999999999761e-03,2.570000000000000062e-02,1.100000000000000066e-03,1.329999999999999932e-02,1.299999999999999940e-03,7.000000000000000146e-03,3.200000000000000153e-03,4.000000000000000083e-03,2.599999999999999881e-03,6.100000000000000387e-03,-4.000000000000000083e-03,3.099999999999999891e-03,8.999999999999999754e-04,1.190000000000000085e-02,1.859999999999999848e-02,3.700000000000000164e-03,6.300000000000000044e-03,1.009999999999999960e-02,-1.009999999999999960e-02,-8.300000000000000086e-03,1.000000000000000021e-03,2.099999999999999870e-03,7.900000000000000772e-03,5.400000000000000286e-03,1.399999999999999986e-03,7.499999999999999722e-03,-1.399999999999999986e-03,6.000000000000000125e-03,-3.700000000000000164e-03,1.310000000000000053e-02,5.300000000000000024e-03,1.899999999999999996e-03,7.400000000000000328e-03,5.000000000000000104e-03,9.900000000000000813e-03,6.599999999999999964e-03,6.199999999999999782e-03,9.400000000000000369e-03,-6.199999999999999782e-03,4.300000000000000003e-03,1.600000000000000077e-03,3.000000000000000062e-03,3.899999999999999821e-03,9.799999999999999684e-03
1.100000000000000000e+01,4.368000000000000000e+03,7.190000000000000557e-02,1.058999999999999941e-01,8.640000000000000457e-02,9.829999999999999849e-02,9.080000000000000571e-02,8.359999999999999376e-02,7.950000000000000122e-02,8.329999999999999905e-02,1.089999999999999997e-01,8.319999999999999618e-02,1.076000000000000012e-01,7.040000000000000424e-02,1.000000000000000056e-01,7.639999999999999569e-02,7.900000000000000078e-02,7.230000000000000315e-02,7.679999999999999327e-02,9.800000000000000377e-02,8.649999999999999356e-02,1.078000000000000069e-01,1.091000000000000025e-01,1.024999999999999939e-01,9.779999999999999805e-02,6.729999999999999871e-02,8.859999999999999820e-02,8.759999999999999731e-02,7.739999999999999658e-02,8.699999999999999400e-02,8.459999999999999465e-02,8.799999999999999489e-02,1.050999999999999990e-01,1.087999999999999939e-01,6.769999999999999629e-02,8.659999999999999643e-02,9.979999999999999982e-02,7.599999999999999811e-02,9.579999999999999627e-02,9.270000000000000462e-02,1.026999999999999996e-01,9.410000000000000309e-02,1.156999999999999973e-01,1.232000000000000040e-01,9.719999999999999474e-02,9.679999999999999716e-02,9.869999999999999607e-02,7.240000000000000602e-02,8.949999999999999623e-02,8.859999999999999820e-02,9.410000000000000309e-02,7.910000000000000364e-02,8.730000000000000260e-02,8.820000000000000062e-02,9.719999999999999474e-02,6.859999999999999432e-02,1.034000000000000058e-01,1.103999999999999981e-01,1.257000000000000062e-01,9.879999999999999893e-02,8.250000000000000389e-02,8.500000000000000611e-02,9.829999999999999849e-02,8.110000000000000542e-02,6.219999999999999835e-02,8.630000000000000171e-02,1.024999999999999939e-01,9.959999999999999409e-02,9.760000000000000620e-02,8.759999999999999731e-02,1.082999999999999935e-01,7.599999999999999811e-02,8.770000000000000018e-02,1.052000000000000018e-01,8.459999999999999465e-02,8.909999999999999865e-02,9.009999999999999953e-02,8.240000000000000102e-02,7.370000000000000162e-02,8.100000000000000255e-02,1.140999999999999931e-01,9.199999999999999845e-02,9.279999999999999361e-02,8.849999999999999534e-02,1.024999999999999939e-01,7.439999999999999392e-02,8.870000000000000107e-02,1.144000000000000017e-01,9.690000000000000002e-02,9.769999999999999518e-02,9.900000000000000466e-02,7.280000000000000360e-02,7.679999999999999327e-02,9.439999999999999780e-02,7.499999999999999722e-02,8.790000000000000591e-02,8.240000000000000102e-02,1.079999999999999988e-01,6.829999999999999960e-02,8.890000000000000679e-02,7.929999999999999549e-02,8.229999999999999816e-02
1.200000000000000000e+01,1.820000000000000000e+03,1.658999999999999919e-01,1.598999999999999866e-01,1.817000000000000004e-01,1.401999999999999913e-01,1.995999999999999996e-01,2.030000000000000138e-01,1.444000000000000006e-01,1.928999999999999881e-01,1.514999999999999958e-01,1.796000000000000096e-01,1.671999999999999875e-01,1.703000000000000069e-01,1.373999999999999944e-01,1.696000000000000008e-01,1.381999999999999895e-01,1.507000000000000006e-01,1.492999999999999883e-01,1.731999999999999929e-01,1.496999999999999997e-01,1.332000000000000128e-01,1.751999999999999946e-01,1.491999999999999993e-01,1.708000000000000074e-01,1.615999999999999936e-01,1.695000000000000118e-01,1.565999999999999892e-01,1.580000000000000016e-01,1.517999999999999905e-01,1.792999999999999872e-01,1.254000000000000115e-01,1.711000000000000021e-01,1.658000000000000029e-01,1.539000000000000090e-01,1.666999999999999871e-01,1.685999999999999999e-01,1.726999999999999924e-01,1.597000000000000086e-01,1.613999999999999879e-01,2.006999999999999895e-01,1.221000000000000002e-01,1.595999999999999919e-01,1.668999999999999928e-01,1.746999999999999942e-01,1.809999999999999942e-01,1.796999999999999986e-01,2.018999999999999961e-01,1.506000000000000116e-01,1.648000000000000020e-01,1.729999999999999871e-01,1.802999999999999881e-01,1.116000000000000048e-01,1.789999999999999925e-01,1.524999999999999967e-01,1.791000000000000092e-01,1.756999999999999951e-01,1.875000000000000000e-01,1.577999999999999958e-01,1.786999999999999977e-01,1.554999999999999993e-01,1.537999999999999923e-01,1.365999999999999992e-01,1.688999999999999946e-01,1.574000000000000121e-01,1.244999999999999996e-01,1.598999999999999866e-01,1.723000000000000087e-01,1.537000000000000033e-01,1.705000000000000127e-01,1.882000000000000062e-01,1.307999999999999996e-01,1.509000000000000064e-01,1.995000000000000107e-01,1.837000000000000022e-01,1.524999999999999967e-01,1.270999999999999908e-01,1.439999999999999891e-01,1.622999999999999998e-01,1.814000000000000057e-01,1.842000000000000026e-01,1.774999999999999911e-01,1.469999999999999918e-01,1.348000000000000032e-01,1.882000000000000062e-01,1.708000000000000074e-01,1.524000000000000077e-01,1.542000000000000037e-01,1.713999999999999968e-01,1.516000000000000125e-01,1.865999999999999881e-01,1.408999999999999975e-01,1.570999999999999897e-01,1.504000000000000059e-01,1.524999999999999967e-01,1.346999999999999864e-01,1.295999999999999930e-01,1.403000000000000080e-01,1.501000000000000112e-01,1.635000000000000064e-01,1.345999999999999974e-01,1.746999999999999942e-01
1.300000000000000000e+01,5.600000000000000000e+02,1.748999999999999999e-01,2.449999999999999956e-01,2.467000000000000026e-01,1.897000000000000075e-01,2.242999999999999994e-01,1.773000000000000131e-01,1.875999999999999890e-01,2.214000000000000135e-01,2.020000000000000129e-01,2.091999999999999971e-01,2.642999999999999794e-01,1.850999999999999868e-01,2.063000000000000111e-01,1.902999999999999969e-01,1.454999999999999905e-01,2.139999999999999958e-01,1.958999999999999908e-01,2.310000000000000109e-01,2.048999999999999988e-01,1.728999999999999981e-01,2.562999999999999723e-01,2.306999999999999884e-01,1.318999999999999895e-01,2.343000000000000083e-01,1.759000000000000008e-01,2.147000000000000020e-01,2.199000000000000121e-01,2.160999999999999865e-01,1.733000000000000096e-01,2.449000000000000066e-01,2.227000000000000091e-01,1.786000000000000087e-01,1.990000000000000102e-01,2.326000000000000012e-01,1.658999999999999919e-01,2.099999999999999922e-01,1.801999999999999991e-01,2.076000000000000068e-01,2.550999999999999934e-01,2.318999999999999950e-01,2.220000000000000029e-01,1.927999999999999992e-01,2.338999999999999968e-01,2.556999999999999829e-01,1.140000000000000041e-01,2.341000000000000025e-01,2.217000000000000082e-01,2.066999999999999948e-01,1.721000000000000030e-01,1.769000000000000017e-01,2.028000000000000080e-01,2.184000000000000108e-01,2.242999999999999994e-01,2.258000000000000007e-01,2.409999999999999920e-01,2.137999999999999901e-01,2.054999999999999882e-01,2.482000000000000040e-01,1.938999999999999890e-01,2.071999999999999953e-01,2.154000000000000081e-01,2.399000000000000021e-01,1.343000000000000027e-01,1.819000000000000061e-01,2.810000000000000275e-01,1.741999999999999937e-01,2.025000000000000133e-01,2.228999999999999870e-01,2.525999999999999912e-01,2.401999999999999968e-01,2.097999999999999865e-01,2.285000000000000087e-01,1.792999999999999872e-01,2.832999999999999963e-01,1.544000000000000095e-01,2.338999999999999968e-01,2.089000000000000024e-01,2.497000000000000053e-01,2.255000000000000060e-01,2.787999999999999923e-01,2.462999999999999912e-01,2.510000000000000009e-01,2.222000000000000086e-01,2.165999999999999870e-01,1.827999999999999903e-01,2.084999999999999909e-01,2.074999999999999900e-01,2.449000000000000066e-01,1.980000000000000093e-01,2.290999999999999981e-01,1.647000000000000131e-01,2.129000000000000059e-01,1.897999999999999965e-01,2.074000000000000010e-01,1.804000000000000048e-01,1.988999999999999935e-01,1.622999999999999998e-01,2.916000000000000258e-01,2.218999999999999861e-01,2.581999999999999851e-01
1.400000000000000000e+01,1.200000000000000000e+02,3.810000000000000053e-01,3.128000000000000225e-01,1.869999999999999996e-01,2.386999999999999955e-01,3.064000000000000057e-01,3.678000000000000158e-01,2.670000000000000151e-01,1.728000000000000091e-01,2.681999999999999940e-01,1.751000000000000056e-01,2.197000000000000064e-01,2.978999999999999981e-01,2.063000000000000111e-01,3.805999999999999939e-01,2.020000000000000129e-01,2.882000000000000117e-01,3.602000000000000202e-01,2.948999999999999955e-01,2.934999999999999831e-01,3.613000000000000100e-01,2.185999999999999888e-01,3.487000000000000099e-01,3.479999999999999760e-01,2.921000000000000263e-01,2.338000000000000078e-01,1.970999999999999974e-01,1.900000000000000022e-01,2.620999999999999996e-01,2.230000000000000038e-01,2.894999999999999796e-01,3.426000000000000156e-01,2.813999999999999835e-01,2.867000000000000104e-01,3.093000000000000194e-01,2.288000000000000034e-01,2.688999999999999724e-01,3.856999999999999873e-01,1.812999999999999889e-01,2.094000000000000028e-01,1.638999999999999901e-01,1.963999999999999913e-01,3.144000000000000128e-01,2.800000000000000266e-01,3.265000000000000124e-01,1.827000000000000013e-01,3.528999999999999915e-01,2.770000000000000240e-01,3.045999999999999819e-01,3.731999999999999762e-01,2.691000000000000059e-01,2.383000000000000118e-01,3.350000000000000200e-01,2.948000000000000065e-01,2.736000000000000099e-01,3.042000000000000259e-01,1.628999999999999893e-01,2.131000000000000116e-01,3.795999999999999930e-01,3.474999999999999756e-01,2.601999999999999869e-01,2.422999999999999876e-01,3.683000000000000163e-01,2.278000000000000025e-01,2.927000000000000157e-01,2.600999999999999979e-01,2.957000000000000184e-01,3.644999999999999907e-01,4.223999999999999977e-01,2.817999999999999949e-01,2.856000000000000205e-01,3.205000000000000071e-01,1.885000000000000009e-01,2.457000000000000017e-01,2.693999999999999728e-01,3.511000000000000232e-01,2.766000000000000125e-01,2.550000000000000044e-01,3.547000000000000153e-01,2.726999999999999980e-01,3.800000000000000044e-01,2.600000000000000089e-01,1.489000000000000046e-01,2.629000000000000226e-01,2.434000000000000052e-01,3.496000000000000218e-01,2.812999999999999945e-01,2.371999999999999942e-01,3.089999999999999969e-01,2.416000000000000092e-01,2.111000000000000099e-01,3.084000000000000075e-01,2.736999999999999988e-01,2.336000000000000021e-01,2.952000000000000179e-01,2.844999999999999751e-01,3.071999999999999731e-01,3.450000000000000289e-02,1.905999999999999917e-01,2.233999999999999875e-01,1.970000000000000084e-01
1.500000000000000000e+01,1.600000000000000000e+01,7.489999999999999436e-02,4.072000000000000064e-01,4.032000000000000028e-01,1.638000000000000012e-01,2.913999999999999924e-01,2.565999999999999948e-01,3.351999999999999980e-01,4.672000000000000042e-01,5.616999999999999771e-01,4.487999999999999767e-01,4.792000000000000148e-01,3.149000000000000132e-01,3.896000000000000019e-01,1.519999999999999997e-02,3.955000000000000182e-01,7.167000000000000037e-01,5.355999999999999650e-01,3.649000000000000021e-01,2.722999999999999865e-01,4.369999999999999996e-01,3.028000000000000136e-01,6.908999999999999586e-01,5.647999999999999687e-01,6.297000000000000375e-01,1.260999999999999899e-01,4.520000000000000129e-01,4.210999999999999743e-01,4.067999999999999949e-01,4.917000000000000259e-01,5.000000000000000000e-01,4.247000000000000219e-01,4.404000000000000137e-01,1.141999999999999960e-01,6.690000000000000113e-02,4.340999999999999859e-01,1.506000000000000116e-01,1.895999999999999908e-01,3.252999999999999781e-01,4.526999999999999913e-01,2.594000000000000195e-01,7.349999999999999589e-02,-1.371999999999999886e-01,3.754000000000000115e-01,2.505000000000000004e-01,1.814000000000000057e-01,3.125999999999999890e-01,1.223000000000000059e-01,7.062000000000000499e-01,4.274999999999999911e-01,1.827999999999999903e-01,1.619999999999999912e-02,3.899000000000000243e-01,3.249000000000000221e-01,1.617000000000000104e-01,1.102000000000000063e-01,6.208000000000000185e-01,4.723999999999999866e-01,5.984000000000000430e-01,-4.000000000000000083e-02,1.935999999999999943e-01,1.199999999999999895e-03,5.926000000000000156e-01,-6.990000000000000380e-02,2.273000000000000020e-01,1.019000000000000045e-01,5.420000000000000373e-01,-1.700000000000000122e-02,-4.240000000000000019e-02,5.884000000000000341e-01,4.208999999999999964e-01,5.383999999999999897e-01,-4.700000000000000185e-03,3.261999999999999900e-01,5.081999999999999851e-01,4.149999999999999800e-01,2.111000000000000099e-01,7.019999999999999574e-01,-2.018000000000000071e-01,-2.283000000000000029e-01,4.848000000000000087e-01,2.031999999999999917e-01,2.177999999999999936e-01,1.899999999999999953e-02,3.609999999999999876e-01,2.970000000000000070e-02,5.171000000000000041e-01,3.259000000000000230e-01,3.896000000000000019e-01,-4.590000000000000330e-02,2.995999999999999774e-01,4.023999999999999799e-01,3.726999999999999758e-01,1.285000000000000031e-01,4.913000000000000145e-01,-3.690000000000000224e-02,3.098000000000000198e-01,2.742999999999999883e-01,3.336999999999999966e-01,3.765999999999999903e-01,7.440999999999999837e-01
1.600000000000000000e+01,1.000000000000000000e+00,nan,nan,nan,nan,nan,nan,nan,nan,nan,nan,nan,nan,nan,nan,nan,nan,nan,nan,nan,nan,nan,nan,nan,nan,nan,nan,nan,nan,nan,nan,nan,nan,nan,nan,nan,nan,nan,nan,nan,nan,nan,nan,nan,nan,nan,nan,nan,nan,nan,nan,nan,nan,nan,nan,nan,nan,nan,nan,nan,nan,nan,nan,nan,nan,nan,nan,nan,nan,nan,nan,nan,nan,nan,nan,nan,nan,nan,nan,nan,nan,nan,nan,nan,nan,nan,nan,nan,nan,nan,nan,nan,nan,nan,nan,nan,nan,nan,nan,nan,nan
