0.0,1.0,nan,nan,nan,nan,nan,nan,nan,nan,nan,nan,nan,nan,nan,nan,nan,nan,nan,nan,nan,nan,nan,nan,nan,nan,nan,nan,nan,nan,nan,nan,nan,nan,nan,nan,nan,nan,nan,nan,nan,nan,nan,nan,nan,nan,nan,nan,nan,nan,nan,nan,nan,nan,nan,nan,nan,nan,nan,nan,nan,nan,nan,nan,nan,nan,nan,nan,nan,nan,nan,nan,nan,nan,nan,nan,nan,nan,nan,nan,nan,nan,nan,nan,nan,nan,nan,nan,nan,nan,nan,nan,nan,nan,nan,nan,nan,nan,nan,nan,nan,nan
1.0,16.0,-0.3203,-0.4789,-0.3726,-0.6185,-0.4489,-0.2831,-0.6275,-0.6206,-0.3591,-0.754,-0.3921,-0.409,-0.5974,-0.314,-0.6089,-0.1128,-0.6889,-0.6579,-0.4238,-0.6145,-0.3572,-0.4349,-0.3729,-0.3524,-0.428,-0.2767,-0.5673,-0.4866,-0.4271,-0.2404,0.1124,-0.5875,0.0788,-0.6839,-0.5467,-0.2709,-0.412,-0.2565,-0.414,-0.6526,-0.6095,-0.2409,-0.4542,-0.5379,-0.3892,-0.6146,-0.5723,-0.5676,-0.6369,-0.6229,-0.4607,-0.013,-0.5335,-0.8021,-0.3204,-0.1528,-0.2097,-0.3143,-0.3977,-0.3798,-0.2848,-0.4299,-0.6254,-0.5501,-0.4233,-0.3316,-0.4202,-0.3141,-0.4131,-0.5253,-0.5847,-0.4018,-0.6704,-0.5571,-0.3659,-0.2663,-0.3627,-0.3324,-0.4949,-0.5305,-0.5407,-0.5949,-0.363,-0.2473,-0.5659,-0.616,-0.2462,-0.1536,-0.5134,-0.575,-0.1569,-0.5029,-0.3449,-0.3138,-0.5591,-0.5759,-0.3188,-0.2312,-0.5719,-0.7791
2.0,120.0,-0.3163,-0.3215,-0.2549,-0.3498,-0.2797,-0.3536,-0.2557,-0.226,-0.3354,-0.2272,-0.3049,-0.2846,-0.3375,-0.2429,-0.3257,-0.2359,-0.2689,-0.3447,-0.329,-0.2823,-0.225,-0.2794,-0.2958,-0.3316,-0.4323,-0.3458,-0.2684,-0.2865,-0.1915,-0.2661,-0.3078,-0.3187,-0.2376,-0.2833,-0.3633,-0.3424,-0.3818,-0.2351,-0.231,-0.274,-0.311,-0.338,-0.2874,-0.2648,-0.2782,-0.3019,-0.237,-0.1746,-0.278,-0.2875,-0.3139,-0.3501,-0.1592,-0.316,-0.333,-0.3008,-0.308,-0.34,-0.3198,-0.2261,-0.3373,-0.209,-0.3435,-0.4246,-0.2442,-0.3248,-0.3046,-0.2249,-0.2736,-0.1829,-0.233,-0.3854,-0.3037,-0.2907,-0.2771,-0.3291,-0.4177,-0.1988,-0.3114,-0.3212,-0.3052,-0.3058,-0.2267,-0.1881,-0.1799,-0.3187,-0.36,-0.2557,-0.1983,-0.2445,-0.3669,-0.2278,-0.2761,-0.2064,-0.3025,-0.2939,-0.3303,-0.2746,-0.3294,-0.2364
3.0,560.0,-0.2818,-0.3428,-0.2969,-0.309,-0.312,-0.3262,-0.262,-0.3475,-0.2872,-0.3085,-0.2822,-0.3065,-0.3393,-0.2891,-0.3209,-0.2614,-0.325,-0.2641,-0.2931,-0.3207,-0.3315,-0.3337,-0.3203,-0.2989,-0.336,-0.2762,-0.3207,-0.3265,-0.3346,-0.3266,-0.3217,-0.3168,-0.2971,-0.3386,-0.3363,-0.283,-0.3238,-0.2795,-0.2499,-0.3323,-0.3217,-0.3032,-0.3143,-0.3213,-0.3378,-0.3245,-0.3478,-0.3285,-0.3055,-0.3039,-0.2708,-0.3433,-0.3592,-0.3015,-0.3427,-0.3206,-0.3378,-0.2539,-0.3639,-0.3274,-0.3433,-0.3127,-0.3176,-0.3226,-0.316,-0.3173,-0.329,-0.2893,-0.303,-0.3233,-0.3232,-0.2757,-0.271,-0.3067,-0.2822,-0.2635,-0.3246,-0.3136,-0.3047,-0.2935,-0.2778,-0.3292,-0.2941,-0.3291,-0.3121,-0.3154,-0.3266,-0.3342,-0.3168,-0.3262,-0.3161,-0.321,-0.303,-0.308,-0.3124,-0.3177,-0.3191,-0.3417,-0.2703,-0.3111
4.0,1820.0,-0.311,-0.3307,-0.323,-0.3221,-0.3121,-0.3431,-0.3287,-0.326,-0.3292,-0.2991,-0.3401,-0.3332,-0.3277,-0.2903,-0.318,-0.3387,-0.3406,-0.2963,-0.3262,-0.3156,-0.3316,-0.3334,-0.3174,-0.3236,-0.3158,-0.3103,-0.3328,-0.3104,-0.3289,-0.3124,-0.3392,-0.3287,-0.3271,-0.3044,-0.3397,-0.3042,-0.3195,-0.3051,-0.3,-0.2995,-0.3437,-0.3312,-0.3349,-0.3191,-0.3199,-0.3044,-0.3432,-0.3278,-0.3241,-0.3281,-0.3079,-0.322,-0.3338,-0.3275,-0.3355,-0.3273,-0.32,-0.3119,-0.3154,-0.3164,-0.3048,-0.3281,-0.3316,-0.3209,-0.3291,-0.3381,-0.3218,-0.3043,-0.3298,-0.2945,-0.3211,-0.3141,-0.329,-0.3367,-0.3098,-0.333,-0.3303,-0.3418,-0.327,-0.3156,-0.3056,-0.3059,-0.3337,-0.3135,-0.3139,-0.3271,-0.3316,-0.3191,-0.3123,-0.3196,-0.3279,-0.3185,-0.3104,-0.3111,-0.3193,-0.3151,-0.312,-0.3198,-0.3249,-0.3165
5.0,4368.0,-0.3143,-0.3138,-0.3115,-0.3085,-0.3204,-0.3085,-0.3172,-0.319,-0.3059,-0.3231,-0.3237,-0.3254,-0.3112,-0.3144,-0.3133,-0.3113,-0.31,-0.3121,-0.3006,-0.3133,-0.3244,-0.3307,-0.3258,-0.3229,-0.3027,-0.3105,-0.3204,-0.3147,-0.323,-0.3059,-0.3212,-0.3231,-0.3189,-0.3342,-0.3185,-0.314,-0.3156,-0.3277,-0.3104,-0.3239,-0.3211,-0.3092,-0.3108,-0.3208,-0.3134,-0.3071,-0.3187,-0.3213,-0.32,-0.3137,-0.3194,-0.3134,-0.3287,-0.3078,-0.331,-0.3153,-0.3216,-0.3233,-0.307,-0.3184,-0.3177,-0.32,-0.3189,-0.3171,-0.3097,-0.3241,-0.3127,-0.3277,-0.3177,-0.3195,-0.3174,-0.3191,-0.3187,-0.3129,-0.3209,-0.3063,-0.3098,-0.3224,-0.3174,-0.3168,-0.3232,-0.3103,-0.3084,-0.3187,-0.3198,-0.3216,-0.3171,-0.3208,-0.31,-0.3125,-0.3191,-0.3102,-0.3053,-0.3252,-0.3223,-0.3116,-0.3175,-0.3088,-0.3183,-0.3244
6.0,8008.0,-0.301,-0.3006,-0.2988,-0.3,-0.3057,-0.3097,-0.297,-0.2928,-0.3086,-0.3116,-0.2989,-0.3035,-0.3079,-0.3041,-0.314,-0.3053,-0.3026,-0.3059,-0.3121,-0.2971,-0.3053,-0.3155,-0.3091,-0.3081,-0.2992,-0.2988,-0.3066,-0.3012,-0.3,-0.3068,-0.3022,-0.3106,-0.3092,-0.308,-0.2997,-0.3084,-0.3051,-0.3052,-0.301,-0.3028,-0.314,-0.3032,-0.308,-0.3093,-0.2959,-0.306,-0.3016,-0.303,-0.304,-0.3054,-0.3086,-0.3038,-0.3027,-0.3096,-0.3056,-0.3059,-0.3028,-0.3133,-0.3073,-0.3059,-0.3074,-0.2997,-0.2966,-0.302,-0.3059,-0.3123,-0.307,-0.3009,-0.303,-0.3042,-0.3027,-0.3059,-0.3074,-0.3061,-0.3119,-0.3141,-0.3047,-0.3061,-0.2971,-0.3029,-0.3049,-0.3083,-0.3009,-0.2992,-0.3093,-0.3056,-0.3047,-0.3071,-0.3017,-0.2967,-0.2986,-0.3028,-0.3065,-0.3041,-0.3087,-0.3084,-0.304,-0.3097,-0.3071,-0.2941
7.0,11440.0,-0.2847,-0.2838,-0.2791,-0.2805,-0.281,-0.2864,-0.2775,-0.2751,-0.279,-0.2878,-0.2864,-0.2874,-0.2869,-0.2755,-0.2845,-0.2783,-0.2859,-0.2878,-0.2851,-0.2853,-0.2828,-0.2784,-0.2835,-0.2754,-0.2841,-0.2829,-0.2892,-0.2861,-0.2817,-0.2806,-0.2905,-0.2768,-0.2782,-0.29,-0.2725,-0.2836,-0.2835,-0.276,-0.2866,-0.2786,-0.275,-0.2867,-0.2796,-0.2846,-0.2859,-0.2794,-0.2861,-0.2831,-0.2926,-0.2823,-0.279,-0.2771,-0.2878,-0.2803,-0.2817,-0.2727,-0.2907,-0.2792,-0.2816,-0.2785,-0.2804,-0.2839,-0.2897,-0.2943,-0.2834,-0.2802,-0.277,-0.291,-0.2781,-0.288,-0.284,-0.2921,-0.2822,-0.2777,-0.2809,-0.2825,-0.2747,-0.2823,-0.2949,-0.2852,-0.2833,-0.285,-0.2769,-0.2814,-0.2778,-0.2868,-0.2908,-0.2823,-0.2805,-0.2833,-0.2803,-0.2847,-0.2926,-0.2846,-0.288,-0.2815,-0.2874,-0.2813,-0.2811,-0.2803
8.0,12870.0,-0.2513,-0.2546,-0.2524,-0.2527,-0.2558,-0.2577,-0.2508,-0.256,-0.2533,-0.2589,-0.2565,-0.2427,-0.2574,-0.252,-0.2496,-0.2566,-0.2527,-0.2547,-0.2597,-0.2538,-0.2551,-0.2515,-0.2483,-0.2537,-0.2564,-0.2575,-0.2576,-0.2569,-0.2537,-0.2524,-0.2537,-0.2536,-0.2613,-0.2495,-0.2611,-0.2548,-0.2591,-0.2518,-0.2558,-0.2547,-0.2557,-0.2555,-0.2566,-0.2529,-0.2585,-0.2574,-0.2552,-0.2474,-0.2593,-0.2587,-0.2539,-0.254,-0.2556,-0.2539,-0.2584,-0.2547,-0.2532,-0.2563,-0.2607,-0.2537,-0.2569,-0.2545,-0.259,-0.2521,-0.2603,-0.2519,-0.2537,-0.2582,-0.2596,-0.2575,-0.2555,-0.2557,-0.25,-0.2531,-0.2529,-0.2536,-0.2537,-0.2508,-0.2584,-0.2488,-0.2609,-0.2541,-0.2482,-0.25,-0.2561,-0.2552,-0.2556,-0.2568,-0.2596,-0.2563,-0.2578,-0.2599,-0.2611,-0.255,-0.2592,-0.2578,-0.252,-0.2582,-0.2489,-0.2535
9.0,11440.0,-0.2216,-0.2224,-0.2268,-0.2255,-0.2163,-0.2276,-0.2248,-0.2203,-0.2183,-0.2272,-0.2218,-0.2245,-0.2203,-0.2225,-0.2244,-0.2261,-0.2255,-0.2242,-0.2243,-0.2212,-0.2263,-0.2306,-0.2328,-0.2232,-0.2189,-0.2202,-0.22,-0.2225,-0.2182,-0.2223,-0.2222,-0.2243,-0.2205,-0.2242,-0.2242,-0.2244,-0.2253,-0.2251,-0.2222,-0.2299,-0.2183,-0.2253,-0.2256,-0.221,-0.2303,-0.2226,-0.234,-0.2241,-0.2252,-0.2231,-0.219,-0.2246,-0.2232,-0.2232,-0.2163,-0.217,-0.2269,-0.2274,-0.2231,-0.227,-0.2249,-0.2226,-0.2163,-0.2227,-0.2173,-0.222,-0.2214,-0.218,-0.2307,-0.2319,-0.2187,-0.2276,-0.2233,-0.2254,-0.2165,-0.2205,-0.2241,-0.2213,-0.2314,-0.2188,-0.2242,-0.2211,-0.2176,-0.23,-0.2189,-0.2259,-0.2253,-0.2165,-0.2273,-0.2244,-0.2211,-0.2232,-0.219,-0.2266,-0.2301,-0.2224,-0.2195,-0.2308,-0.2202,-0.214
10.0,8008.0,-0.1823,-0.1789,-0.1823,-0.1863,-0.1844,-0.1916,-0.1892,-0.1742,-0.1839,-0.185,-0.188,-0.1897,-0.1912,-0.1941,-0.1945,-0.1866,-0.1885,-0.2013,-0.1911,-0.1824,-0.1806,-0.183,-0.1899,-0.194,-0.1816,-0.1798,-0.1796,-0.182,-0.1925,-0.1799,-0.1895,-0.1851,-0.1882,-0.1907,-0.19,-0.1805,-0.1779,-0.1819,-0.1818,-0.1817,-0.1929,-0.1876,-0.183,-0.1868,-0.1905,-0.1904,-0.1803,-0.1848,-0.1808,-0.185,-0.187,-0.1811,-0.1864,-0.1809,-0.1763,-0.1919,-0.1819,-0.1858,-0.1923,-0.1804,-0.1786,-0.1935,-0.1905,-0.1753,-0.1835,-0.1783,-0.1894,-0.1757,-0.1787,-0.1913,-0.1861,-0.1843,-0.1764,-0.1874,-0.1867,-0.1944,-0.1875,-0.1868,-0.1915,-0.193,-0.1803,-0.1902,-0.1893,-0.1766,-0.186,-0.1872,-0.1816,-0.1892,-0.174,-0.18,-0.1941,-0.1819,-0.1841,-0.1895,-0.1847,-0.1842,-0.1902,-0.1889,-0.1839,-0.1903
11.0,4368.0,-0.1403,-0.142,-0.1216,-0.1383,-0.1483,-0.1419,-0.1414,-0.1359,-0.137,-0.1487,-0.1427,-0.1439,-0.1511,-0.1357,-0.1306,-0.1414,-0.1366,-0.1396,-0.14,-0.1568,-0.1501,-0.145,-0.1163,-0.1324,-0.1322,-0.1579,-0.1447,-0.1406,-0.1287,-0.1472,-0.1462,-0.1419,-0.1439,-0.1255,-0.1433,-0.1454,-0.1419,-0.1256,-0.1461,-0.1195,-0.136,-0.1453,-0.1437,-0.1504,-0.1296,-0.134,-0.1477,-0.1466,-0.1418,-0.1462,-0.1323,-0.1397,-0.153,-0.1507,-0.155,-0.1514,-0.1385,-0.142,-0.1401,-0.1205,-0.153,-0.1578,-0.1437,-0.1266,-0.1428,-0.1492,-0.1385,-0.1487,-0.1451,-0.1354,-0.1525,-0.1503,-0.1672,-0.1179,-0.1408,-0.1535,-0.1441,-0.144,-0.1431,-0.1329,-0.1383,-0.1421,-0.1508,-0.1336,-0.1492,-0.1595,-0.1278,-0.131,-0.145,-0.154,-0.1441,-0.1418,-0.143,-0.1459,-0.1503,-0.1417,-0.1415,-0.1403,-0.1286,-0.1327
12.0,1820.0,-0.0953,-0.1264,-0.1029,-0.091,-0.1085,-0.0878,-0.0961,-0.0895,-0.0793,-0.1194,-0.0866,-0.1152,-0.104,-0.0903,-0.0869,-0.09,-0.1139,-0.0729,-0.1096,-0.1166,-0.0764,-0.0745,-0.1072,-0.1147,-0.0852,-0.0693,-0.0785,-0.0938,-0.0836,-0.079,-0.1021,-0.0898,-0.0817,-0.0678,-0.0688,-0.0802,-0.0762,-0.0734,-0.095,-0.1069,-0.0793,-0.1012,-0.0817,-0.0938,-0.0846,-0.0576,-0.0846,-0.0932,-0.1026,-0.1009,-0.1196,-0.0996,-0.1058,-0.0706,-0.1107,-0.1144,-0.1069,-0.1223,-0.0906,-0.1232,-0.0848,-0.1104,-0.0914,-0.0961,-0.0908,-0.0726,-0.093,-0.0795,-0.0894,-0.0854,-0.0863,-0.0973,-0.0879,-0.0713,-0.0971,-0.1141,-0.0593,-0.0911,-0.0693,-0.1119,-0.0832,-0.1063,-0.0901,-0.0971,-0.0685,-0.0705,-0.0891,-0.0783,-0.1003,-0.0807,-0.087,-0.0823,-0.0887,-0.0772,-0.0982,-0.0686,-0.0517,-0.1046,-0.07,-0.1003
13.0,560.0,-0.0864,-0.0295,-0.0397,-0.0672,-0.0317,-0.0322,-0.0784,-0.0076,-0.0365,0.0018,-0.0163,-0.0346,0.0329,-0.0448,-0.0565,-0.0649,-0.0111,-0.0117,-0.0581,-0.0607,-0.0295,-0.0925,-0.0522,-0.063,-0.0324,-0.0441,-0.0752,-0.0013,0.0062,-0.015,-0.015,-0.0674,-0.1172,-0.0008,-0.0678,-0.015,-0.0369,-0.0459,-0.0589,-0.0619,-0.015,-0.0605,-0.048,-0.068,-0.066,-0.0476,-0.067,-0.047,-0.0367,-0.0808,-0.0101,-0.0061,-0.0577,0.0014,0.0119,-0.0734,-0.0157,-0.0676,-0.0332,-0.0213,-0.0265,-0.002,-0.0546,-0.0602,-0.0661,-0.0184,-0.0211,-0.0322,-0.0224,-0.0618,-0.0647,-0.0089,-0.0746,-0.0611,-0.1117,-0.0486,-0.0323,-0.0283,-0.0361,-0.0744,-0.0932,-0.0824,-0.0533,-0.0103,-0.0465,-0.079,0.0054,-0.0384,-0.0818,-0.028,-0.0426,-0.0285,-0.0217,0.0017,-0.0115,-0.0467,0.0184,0.0166,-0.0506,0.0305
14.0,120.0,0.0251,0.1758,-0.1562,-0.1334,0.2403,-0.0092,0.0434,0.0187,0.0382,0.1132,0.0432,0.0035,0.0655,-0.0709,0.0387,-0.0133,0.0101,0.0401,-0.1088,0.1049,-0.0188,0.114,-0.0591,-0.1221,-0.0793,-0.0085,0.0792,0.0092,-0.1449,0.1639,0.1805,0.0681,0.0748,0.0961,-0.0305,0.049,-0.1161,-0.0287,0.0739,-0.087,-0.0178,-0.0159,0.0271,-0.1033,0.0878,0.0219,-0.0724,0.0753,0.0669,0.0522,-0.0695,-0.0033,0.0082,0.0248,-0.0,0.044,0.0274,0.0194,0.0632,0.0039,-0.1702,0.1322,0.0718,0.059,0.0575,-0.095,0.0488,0.057,0.0032,0.0886,0.0351,-0.0458,0.0047,0.0265,-0.0472,-0.0991,0.0582,0.0136,-0.0062,0.0379,0.0525,-0.0369,0.0046,0.0063,0.1622,0.0576,0.1179,-0.0598,0.0728,0.0202,0.0493,-0.0431,0.074,0.0661,0.0196,0.0057,0.0632,0.1344,-0.0637,-0.0938
15.0,16.0,-0.0913,-0.1409,0.3335,0.2272,0.1965,0.0383,0.2428,0.2697,0.1078,0.0856,-0.0401,0.0221,-0.0479,0.021,0.284,0.0433,0.1854,0.4441,-0.0763,0.2735,0.263,-0.0248,0.2876,0.1506,0.0503,0.1189,0.5846,-0.0529,-0.0364,-0.4288,0.1286,0.5023,0.5148,-0.2333,0.283,0.4835,-0.2648,0.3528,0.1491,0.4986,-0.0922,-0.0845,0.318,0.4054,-0.0292,0.0908,0.5312,0.3134,0.208,0.5526,0.1742,0.1329,0.1148,0.1442,-0.1566,0.1748,0.2152,0.3689,0.1125,0.6147,0.1428,0.2598,0.0492,0.1195,-0.0777,-0.046,0.0709,0.2263,0.1992,0.0184,0.1162,0.1393,0.0845,0.1805,-0.0959,0.271,0.4985,0.5375,0.1063,0.1125,0.3937,0.238,-0.1616,0.2571,0.0855,0.3344,0.0633,0.0597,0.3008,0.5577,-0.0193,0.1291,0.4411,0.1707,0.3275,-0.0564,0.0026,0.4625,0.3543,0.3674
16.0,1.0,nan,nan,nan,nan,nan,nan,nan,nan,nan,nan,nan,nan,nan,nan,nan,nan,nan,nan,nan,nan,nan,nan,nan,nan,nan,nan,nan,nan,nan,nan,nan,nan,nan,nan,nan,nan,nan,nan,nan,nan,nan,nan,nan,nan,nan,nan,nan,nan,nan,nan,nan,nan,nan,nan,nan,nan,nan,nan,nan,nan,nan,nan,nan,nan,nan,nan,nan,nan,nan,nan,nan,nan,nan,nan,nan,nan,nan,nan,nan,nan,nan,nan,nan,nan,nan,nan,nan,nan,nan,nan,nan,nan,nan,nan,nan,nan,nan,nan,nan,nan
