0.0,1.0,nan,nan,nan,nan,nan,nan,nan,nan,nan,nan,nan,nan,nan,nan,nan,nan,nan,nan,nan,nan,nan,nan,nan,nan,nan,nan,nan,nan,nan,nan,nan,nan,nan,nan,nan,nan,nan,nan,nan,nan,nan,nan,nan,nan,nan,nan,nan,nan,nan,nan,nan,nan,nan,nan,nan,nan,nan,nan,nan,nan,nan,nan,nan,nan,nan,nan,nan,nan,nan,nan,nan,nan,nan,nan,nan,nan,nan,nan,nan,nan,nan,nan,nan,nan,nan,nan,nan,nan,nan,nan,nan,nan,nan,nan,nan,nan,nan,nan,nan,nan
1.0,16.0,-0.0547,-0.5058,-0.4246,-0.2852,-0.2241,-0.6656,-0.3407,-0.212,-0.5994,-0.5782,-0.6804,-0.1914,-0.2709,-0.4752,-0.3522,0.049,-0.3108,-0.6562,-0.295,-0.5476,-0.2221,-0.7513,-0.4724,-0.0062,-0.3299,-0.5262,-0.4238,-0.4185,-0.5745,-0.2214,-0.4288,-0.5081,-0.3678,-0.6112,-0.4624,-0.3471,-0.4215,-0.3435,-0.4793,-0.5731,-0.2742,-0.5312,-0.5337,-0.4572,-0.4522,-0.4425,-0.4481,-0.3314,-0.2786,-0.2402,-0.3854,-0.1825,-0.4147,-0.4773,-0.3306,-0.3328,-0.5835,-0.4674,-0.4152,-0.5069,-0.136,-0.5414,-0.4042,-0.2152,-0.5329,-0.1885,-0.3373,-0.6128,-0.7267,-0.4556,-0.2734,-0.5604,-0.5936,-0.5282,-0.5721,-0.4962,-0.4367,-0.151,-0.742,-0.4838,-0.363,-0.4568,-0.4858,-0.3521,-0.7086,-0.1706,-0.3624,-0.1962,-0.5086,-0.6589,-0.6624,-0.5126,-0.3927,-0.8598,-0.6444,-0.3422,-0.3396,-0.46,-0.2699,-0.2589
2.0,120.0,-0.5143,-0.4859,-0.5951,-0.4961,-0.5117,-0.5002,-0.492,-0.528,-0.5685,-0.5872,-0.5056,-0.4874,-0.5949,-0.6276,-0.652,-0.6201,-0.5283,-0.4918,-0.5947,-0.4812,-0.5069,-0.4806,-0.4768,-0.4541,-0.4584,-0.5425,-0.5899,-0.5632,-0.5575,-0.5494,-0.4826,-0.599,-0.5671,-0.5799,-0.5599,-0.4805,-0.5266,-0.5761,-0.5746,-0.475,-0.5329,-0.5162,-0.6289,-0.4735,-0.5014,-0.458,-0.5565,-0.4846,-0.6194,-0.4624,-0.4846,-0.5602,-0.4952,-0.5585,-0.5104,-0.5501,-0.5548,-0.6185,-0.5219,-0.5761,-0.4851,-0.4956,-0.5381,-0.5598,-0.5592,-0.6174,-0.5052,-0.5894,-0.5714,-0.4466,-0.5024,-0.5594,-0.5659,-0.5072,-0.5339,-0.5748,-0.5719,-0.534,-0.5848,-0.5804,-0.5436,-0.5035,-0.5174,-0.5618,-0.597,-0.4945,-0.4572,-0.6249,-0.5032,-0.5653,-0.5226,-0.5071,-0.5674,-0.5293,-0.5105,-0.508,-0.503,-0.4941,-0.5771,-0.3787
3.0,560.0,-0.6154,-0.6333,-0.5911,-0.5848,-0.5898,-0.6066,-0.583,-0.5865,-0.6181,-0.6183,-0.5922,-0.5906,-0.5937,-0.5716,-0.5784,-0.6011,-0.5855,-0.6024,-0.5726,-0.6003,-0.6185,-0.6138,-0.6181,-0.5923,-0.5842,-0.5744,-0.576,-0.636,-0.5916,-0.5851,-0.6166,-0.5983,-0.5752,-0.5825,-0.5794,-0.5817,-0.6196,-0.5797,-0.6035,-0.62,-0.6217,-0.586,-0.6026,-0.6322,-0.6052,-0.6215,-0.6003,-0.6085,-0.6024,-0.5902,-0.6128,-0.5667,-0.5871,-0.596,-0.609,-0.5728,-0.5689,-0.5963,-0.594,-0.5973,-0.5965,-0.5884,-0.5987,-0.6139,-0.5884,-0.623,-0.6127,-0.6124,-0.6052,-0.6048,-0.5769,-0.6236,-0.5959,-0.5743,-0.5906,-0.5992,-0.5626,-0.5905,-0.6007,-0.5561,-0.607,-0.5856,-0.6006,-0.6066,-0.5975,-0.5631,-0.5924,-0.6365,-0.5729,-0.611,-0.5617,-0.6075,-0.5887,-0.6302,-0.5976,-0.5937,-0.5947,-0.5991,-0.5689,-0.5782
4.0,1820.0,-0.5986,-0.63,-0.6415,-0.6055,-0.6084,-0.6216,-0.6191,-0.6265,-0.6238,-0.6307,-0.6271,-0.624,-0.6247,-0.6261,-0.6302,-0.633,-0.6252,-0.6249,-0.6197,-0.6255,-0.6284,-0.6166,-0.6346,-0.6316,-0.6306,-0.6214,-0.6073,-0.6077,-0.605,-0.6096,-0.6366,-0.608,-0.6209,-0.6059,-0.6235,-0.62,-0.6229,-0.6074,-0.6238,-0.6296,-0.6125,-0.6277,-0.6072,-0.6067,-0.6083,-0.6249,-0.6249,-0.6123,-0.6292,-0.6171,-0.6294,-0.6283,-0.5989,-0.6328,-0.6169,-0.6164,-0.6283,-0.6162,-0.6182,-0.621,-0.6078,-0.6199,-0.6292,-0.621,-0.6094,-0.6133,-0.6109,-0.6055,-0.6071,-0.6207,-0.6042,-0.585,-0.6176,-0.6002,-0.6073,-0.619,-0.6096,-0.6319,-0.6061,-0.6245,-0.6235,-0.6223,-0.6258,-0.6277,-0.6284,-0.6231,-0.6304,-0.6158,-0.626,-0.6317,-0.6348,-0.6332,-0.6312,-0.6181,-0.6283,-0.629,-0.6143,-0.625,-0.6165,-0.6063
5.0,4368.0,-0.5839,-0.5984,-0.6008,-0.6044,-0.5983,-0.5981,-0.5844,-0.5893,-0.5853,-0.5881,-0.598,-0.5929,-0.5967,-0.5942,-0.5859,-0.5912,-0.5904,-0.598,-0.6031,-0.5894,-0.5888,-0.5958,-0.5943,-0.5953,-0.5971,-0.5891,-0.5962,-0.5867,-0.5851,-0.5978,-0.5944,-0.5981,-0.5966,-0.5938,-0.6013,-0.5955,-0.5932,-0.5895,-0.5967,-0.6022,-0.5944,-0.596,-0.5857,-0.5946,-0.5952,-0.5942,-0.5868,-0.5984,-0.5893,-0.5976,-0.5898,-0.5967,-0.5952,-0.5857,-0.6059,-0.5962,-0.5916,-0.5981,-0.5931,-0.5869,-0.5919,-0.5943,-0.5931,-0.5929,-0.5862,-0.5941,-0.5861,-0.5936,-0.6036,-0.6002,-0.587,-0.5906,-0.5865,-0.5948,-0.5867,-0.5963,-0.5846,-0.6055,-0.5919,-0.589,-0.5814,-0.599,-0.5923,-0.5962,-0.5812,-0.594,-0.5785,-0.591,-0.5792,-0.5978,-0.5951,-0.5977,-0.5972,-0.6004,-0.5914,-0.5932,-0.5972,-0.5924,-0.5838,-0.5809
6.0,8008.0,-0.5117,-0.5192,-0.5152,-0.5098,-0.521,-0.5167,-0.517,-0.5095,-0.5176,-0.5191,-0.5153,-0.5129,-0.5177,-0.5101,-0.5215,-0.5162,-0.5233,-0.5126,-0.52,-0.5227,-0.5193,-0.5171,-0.5101,-0.5106,-0.512,-0.5094,-0.5156,-0.5246,-0.5139,-0.5186,-0.5137,-0.508,-0.5165,-0.5147,-0.5124,-0.518,-0.5132,-0.508,-0.5194,-0.5142,-0.5174,-0.5185,-0.5155,-0.5187,-0.5167,-0.5102,-0.5153,-0.5098,-0.514,-0.5155,-0.5131,-0.5224,-0.5154,-0.5095,-0.517,-0.5191,-0.5127,-0.5107,-0.5175,-0.5163,-0.517,-0.5128,-0.5135,-0.5217,-0.5128,-0.5152,-0.5197,-0.5111,-0.5174,-0.5161,-0.5189,-0.5155,-0.5131,-0.5087,-0.5107,-0.517,-0.5079,-0.5146,-0.512,-0.5156,-0.5121,-0.5137,-0.5115,-0.5257,-0.5115,-0.5179,-0.5153,-0.5189,-0.5129,-0.5051,-0.5161,-0.5153,-0.5175,-0.5169,-0.5144,-0.5099,-0.5187,-0.5257,-0.5142,-0.5115
7.0,11440.0,-0.3973,-0.3945,-0.3989,-0.4004,-0.3962,-0.3962,-0.3948,-0.3989,-0.3966,-0.4015,-0.3964,-0.4034,-0.4048,-0.3989,-0.4021,-0.3912,-0.3965,-0.3991,-0.3966,-0.3975,-0.4034,-0.4006,-0.3964,-0.3994,-0.4013,-0.4019,-0.4025,-0.3967,-0.3989,-0.4024,-0.3958,-0.3991,-0.3917,-0.3945,-0.4001,-0.3918,-0.3972,-0.3985,-0.4033,-0.4078,-0.4019,-0.3986,-0.398,-0.4037,-0.3892,-0.3981,-0.403,-0.3971,-0.4009,-0.4011,-0.397,-0.3933,-0.4044,-0.3987,-0.3955,-0.3995,-0.3984,-0.3957,-0.3978,-0.3989,-0.4006,-0.4001,-0.3976,-0.4011,-0.3972,-0.4001,-0.3999,-0.4047,-0.3962,-0.4006,-0.3982,-0.4026,-0.4002,-0.4028,-0.4036,-0.3946,-0.396,-0.4007,-0.3981,-0.3972,-0.4052,-0.4025,-0.3979,-0.4081,-0.4001,-0.3955,-0.4033,-0.4053,-0.3954,-0.3978,-0.3992,-0.3945,-0.3988,-0.3938,-0.3969,-0.4016,-0.3997,-0.3921,-0.4013,-0.3966
8.0,12870.0,-0.2588,-0.253,-0.246,-0.2549,-0.2535,-0.2535,-0.2644,-0.2551,-0.248,-0.251,-0.2535,-0.2534,-0.2546,-0.256,-0.2512,-0.2558,-0.2562,-0.2615,-0.2638,-0.2627,-0.2516,-0.2486,-0.2583,-0.2539,-0.2506,-0.2541,-0.2543,-0.2446,-0.2531,-0.262,-0.2529,-0.2601,-0.2637,-0.2505,-0.2509,-0.2532,-0.2547,-0.2512,-0.2591,-0.2524,-0.2516,-0.2588,-0.2619,-0.2562,-0.2587,-0.2593,-0.2568,-0.2481,-0.2611,-0.2539,-0.2528,-0.2546,-0.2503,-0.2557,-0.2519,-0.2673,-0.2509,-0.2565,-0.261,-0.2545,-0.2561,-0.2508,-0.2551,-0.2562,-0.2483,-0.2594,-0.2537,-0.2612,-0.2652,-0.2534,-0.2561,-0.2562,-0.2594,-0.2565,-0.2472,-0.2471,-0.2537,-0.2533,-0.2563,-0.25,-0.2506,-0.2554,-0.2543,-0.261,-0.2441,-0.2479,-0.2562,-0.2545,-0.2483,-0.247,-0.2532,-0.2553,-0.2561,-0.2527,-0.2483,-0.2627,-0.2557,-0.2537,-0.2551,-0.25
9.0,11440.0,-0.1006,-0.0974,-0.1031,-0.0981,-0.0936,-0.0954,-0.1084,-0.0975,-0.0974,-0.0999,-0.1065,-0.1044,-0.1041,-0.1031,-0.0968,-0.0998,-0.1124,-0.0962,-0.0921,-0.0949,-0.1042,-0.1072,-0.093,-0.0967,-0.0928,-0.0959,-0.102,-0.1004,-0.104,-0.0998,-0.1057,-0.1054,-0.1073,-0.1104,-0.0976,-0.1031,-0.0964,-0.0958,-0.1079,-0.1038,-0.1,-0.1035,-0.095,-0.0949,-0.1056,-0.1051,-0.1025,-0.1017,-0.1048,-0.1,-0.1002,-0.0991,-0.1072,-0.1042,-0.1068,-0.1081,-0.1011,-0.0985,-0.0942,-0.1091,-0.1068,-0.1022,-0.0996,-0.1042,-0.105,-0.0944,-0.1056,-0.0994,-0.1047,-0.1033,-0.1002,-0.0993,-0.1067,-0.0972,-0.0936,-0.1073,-0.1012,-0.0995,-0.0987,-0.0952,-0.0986,-0.0997,-0.1023,-0.0985,-0.1074,-0.1047,-0.1119,-0.1074,-0.0989,-0.1059,-0.0977,-0.0998,-0.1061,-0.0985,-0.1092,-0.098,-0.0971,-0.104,-0.1,-0.1082
10.0,8008.0,0.0444,0.0417,0.0344,0.0483,0.0483,0.0461,0.0377,0.0439,0.0406,0.0402,0.0408,0.0412,0.0329,0.0445,0.0427,0.0482,0.0354,0.0425,0.0389,0.0435,0.0436,0.0447,0.0307,0.0249,0.0308,0.0457,0.0434,0.0416,0.0502,0.0391,0.0383,0.0391,0.0351,0.0478,0.037,0.044,0.0374,0.0377,0.0362,0.0404,0.0452,0.0331,0.0418,0.0481,0.0383,0.0303,0.0404,0.0416,0.0402,0.0475,0.0519,0.0343,0.045,0.0432,0.0494,0.0293,0.0323,0.0332,0.0391,0.0474,0.0443,0.0376,0.04,0.0357,0.0386,0.0299,0.0354,0.0449,0.0321,0.0391,0.0372,0.0358,0.0471,0.034,0.0393,0.0219,0.0445,0.0423,0.0424,0.0402,0.0423,0.0361,0.0332,0.045,0.0366,0.0448,0.0468,0.0423,0.0377,0.0413,0.0476,0.0451,0.0507,0.0548,0.0391,0.0323,0.0296,0.0371,0.043,0.0521
11.0,4368.0,0.1661,0.1556,0.1561,0.1554,0.1616,0.1617,0.1656,0.1495,0.1714,0.1489,0.1598,0.1555,0.1514,0.1605,0.1567,0.1461,0.1649,0.1558,0.1548,0.153,0.1558,0.1547,0.1402,0.1819,0.1694,0.1529,0.1604,0.1402,0.1558,0.1535,0.1587,0.1559,0.1546,0.1673,0.1586,0.1605,0.1523,0.1466,0.1527,0.139,0.162,0.1377,0.1734,0.1716,0.1677,0.1669,0.1498,0.1457,0.1616,0.1589,0.1545,0.1517,0.1531,0.1516,0.1474,0.1586,0.143,0.1548,0.1632,0.1461,0.1599,0.1428,0.16,0.1692,0.1633,0.1687,0.1651,0.1476,0.1399,0.1657,0.1607,0.1718,0.1721,0.153,0.1611,0.1526,0.1567,0.1488,0.1568,0.1705,0.1487,0.144,0.1653,0.1652,0.1586,0.1547,0.1487,0.1623,0.1637,0.1637,0.1613,0.1472,0.1437,0.1425,0.1539,0.1553,0.1563,0.1648,0.1556,0.1721
12.0,1820.0,0.2583,0.2346,0.2188,0.2448,0.2283,0.2168,0.2305,0.2181,0.2516,0.2227,0.2366,0.2451,0.2527,0.2374,0.2407,0.2259,0.2417,0.2127,0.2469,0.2388,0.2367,0.2349,0.2542,0.2309,0.2379,0.231,0.2416,0.233,0.2519,0.2175,0.2271,0.2116,0.2042,0.2407,0.2563,0.2425,0.2066,0.2234,0.2451,0.2127,0.2142,0.2224,0.2214,0.2554,0.2278,0.2358,0.2553,0.2309,0.2438,0.2364,0.2436,0.2533,0.2423,0.2429,0.2158,0.2361,0.2564,0.2469,0.2605,0.2295,0.266,0.2488,0.2484,0.2423,0.2523,0.231,0.2502,0.2436,0.218,0.2297,0.2301,0.2432,0.2265,0.2356,0.2541,0.2268,0.2159,0.2252,0.2413,0.2515,0.2271,0.1915,0.2424,0.257,0.2365,0.228,0.2305,0.2288,0.2264,0.2046,0.2652,0.2424,0.2648,0.2056,0.2254,0.2431,0.2309,0.2379,0.2435,0.2154
13.0,560.0,0.2014,0.3032,0.216,0.2536,0.246,0.318,0.2573,0.2136,0.2308,0.3073,0.2771,0.284,0.2178,0.2249,0.2504,0.2552,0.2984,0.2276,0.2943,0.2411,0.264,0.2522,0.2603,0.2767,0.2526,0.257,0.2783,0.2449,0.2038,0.2739,0.238,0.2648,0.2674,0.2547,0.2687,0.3287,0.2953,0.2553,0.2836,0.2532,0.2712,0.3121,0.2587,0.2378,0.2702,0.2636,0.2359,0.2241,0.2753,0.1975,0.2785,0.2817,0.2524,0.2719,0.2647,0.3004,0.2425,0.2887,0.2981,0.2798,0.2799,0.244,0.2609,0.2518,0.2014,0.1859,0.2886,0.272,0.278,0.2704,0.2919,0.2814,0.3019,0.302,0.253,0.2567,0.2492,0.2653,0.2407,0.2003,0.2918,0.2777,0.2038,0.2862,0.2569,0.2092,0.2714,0.2609,0.2337,0.2375,0.2714,0.2755,0.2566,0.3011,0.2603,0.2753,0.2721,0.2201,0.2952,0.2132
14.0,120.0,0.1277,0.2589,0.2261,0.2182,0.2942,0.2333,0.1576,0.2677,0.1979,0.2211,0.1284,0.2371,0.1825,0.3263,0.3243,0.2887,0.2298,0.2726,0.1928,0.2689,0.2917,0.2868,0.2196,0.2616,0.3094,0.2363,0.1512,0.2158,0.3018,0.3029,0.2388,0.2117,0.1517,0.0486,0.2338,0.3039,0.2667,0.2333,0.1504,0.1806,0.3172,0.2811,0.2501,0.3278,0.2806,0.1862,0.2322,0.3007,0.2499,0.1493,0.2683,0.2911,0.1762,0.1206,0.1308,0.2647,0.2006,0.2373,0.2317,0.3216,0.3473,0.3087,0.2624,0.1909,0.2754,0.2266,0.2927,0.2062,0.2854,0.0653,0.1788,0.2889,0.1698,0.3381,0.362,0.3405,0.2112,0.1235,0.2852,0.2215,0.2695,0.2128,0.1904,0.1071,0.3363,0.1897,0.0731,0.1094,0.2187,0.315,0.2709,0.2082,0.1684,0.2412,0.2457,0.2347,0.2713,0.1453,0.2269,0.2589
15.0,16.0,-0.159,0.2345,0.5514,0.3019,0.181,0.014,0.4215,0.1196,0.0553,0.5624,0.3467,0.5747,0.0392,0.159,0.45,0.1327,0.2838,0.498,0.0296,0.277,0.3233,0.0407,0.2618,0.7393,-0.1688,0.0288,0.0976,0.5655,0.4799,0.2254,0.4525,-0.1026,0.1592,-0.0087,0.274,0.01,0.7238,0.1366,0.1405,-0.3954,0.0746,0.2876,0.1421,-0.1698,0.286,-0.0131,-0.0253,0.2865,0.3971,0.1989,0.2845,0.2964,0.0733,0.2258,0.2957,0.0805,0.1823,0.4156,0.1852,0.0478,0.1486,0.1252,0.3932,0.4685,-0.0263,0.1742,-0.0483,0.1505,0.4352,-0.1521,-0.0127,-0.1852,0.1419,0.3869,-0.263,0.0861,0.1105,0.5594,-0.1578,0.6135,-0.268,-0.3616,0.054,0.2816,-0.008,0.2359,-0.2401,0.2756,0.4892,0.3049,0.1672,0.2345,0.4782,-0.2643,0.1464,0.552,-0.3561,0.0861,0.1529,0.3191
16.0,1.0,nan,nan,nan,nan,nan,nan,nan,nan,nan,nan,nan,nan,nan,nan,nan,nan,nan,nan,nan,nan,nan,nan,nan,nan,nan,nan,nan,nan,nan,nan,nan,nan,nan,nan,nan,nan,nan,nan,nan,nan,nan,nan,nan,nan,nan,nan,nan,nan,nan,nan,nan,nan,nan,nan,nan,nan,nan,nan,nan,nan,nan,nan,nan,nan,nan,nan,nan,nan,nan,nan,nan,nan,nan,nan,nan,nan,nan,nan,nan,nan,nan,nan,nan,nan,nan,nan,nan,nan,nan,nan,nan,nan,nan,nan,nan,nan,nan,nan,nan,nan
