55.9
52.0
51.6
62.7
63.4
59.0
71.5
69.1
63.6
61.4
51.2
61.8
62.1
63.3
63.1
58.9
66.2
57.0
60.8
63.1
61.8
62.3
58.4
69.4
61.6
59.6
51.4
63.4
56.6
48.2
64.8
74.2
65.3
66.3
71.9
64.6
60.5
63.3
70.0
68.1
55.2
59.4
65.8
59.8
60.2
61.0
64.8
50.0
70.6
58.4
41.5
77.4
